host,deg1,min1,dir1,deg2,min2,dir2
Albany,42,45,N,73,48,W
Albuquerque,35,5,N,106,39,W
Anaheim,33,51,N,117,55,W
Arlington,32,44,N,97,6,W
Atlanta,33,39,N,84,26,W
Auburn Hills,42,41,N,83,14,W
Austin,30,18,N,97,42,W
Birmingham,33,34,N,86,45,W
Boise,43,34,N,116,13,W
Boston,42,22,N,71,2,W
Buffalo,42,56,N,78,44,W
Charlotte,35,13,N,80,56,W
Chicago,41,47,N,87,45,W
Cleveland,41,24,N,81,51,W
Columbus,40,0,N,82,53,W
Dallas,32,51,N,96,51,W
Dayton,39,54,N,84,13,W
Denver,39,45,N,104,52,W
Detroit,42,25,N,83,1,W
East Rutherford,40,50,N,74,6,W
Glendale,33,32,N,112,11,W
Greensboro,36,5,N,79,57,W
Greenville,34,54,N,82,13,W
Hartford,41,46,N,72,41,W
Houston,29,58,N,95,21,W
Indianapolis,39,44,N,86,17,W
Jacksonville,30,30,N,81,42,W
Kansas City,39,7,N,94,35,W
Knoxville,35,49,N,83,59,W
Lexington,38,2,N,84,36,W
Little Rock,34,44,N,92,14,W
Los Angeles,33,56,N,118,24,W
Louisville,38,11,N,85,44,W
Madison,43,8,N,89,20,W
Memphis,35,3,N,90,0,W
Miami,25,48,N,80,16,W
Milwaukee,42,57,N,87,54,W
Minneapolis,44,53,N,93,13,W
Nashville,36,7,N,86,41,W
New Orleans,29,59,N,90,15,W
New York,40,47,N,73,58,W
Newark,40,42,N,74,10,W
Oakland,37,48,N,122,16,W
Oklahoma City,35,28,N,97,31,W
Omaha,41,18,N,95,54,W
Orlando,28,33,N,81,23,W
Philadelphia,39,53,N,75,15,W
Phoenix,33,26,N,112,1,W
Pittsburgh,40,30,N,80,13,W
Portland,45,36,N,122,36,W
Providence,41,44,N,71,26,W
Raleigh,35,52,N,78,47,W
Richmond,37,30,N,77,20,W
Sacramento,38,31,N,121,30,W
Salt Lake City,40,46,N,111,58,W
San Antonio,29,32,N,98,28,W
San Diego,32,44,N,117,10,W
San Jose,37,22,N,121,56,W
Seattle,47,27,N,122,18,W
Spokane,47,38,N,117,31,W
St Louis,38,45,N,90,23,W
St Petersburg,27,46,N,82,41,W
Syracuse,43,7,N,76,7,W
Tampa,27,58,N,82,32,W
Tempe,33,25,N,111,55,W
Tucson,32,7,N,110,56,W
Tulsa,36,12,N,95,54,W
Uniondale,40,42,N,73,36,W
Washington,38,51,N,77,2,W
Winston-Salem,36,8,N,80,13,W
Worcester,42,16,N,71,52,W
