season,years,dayzero,regionW,regionX,regionY,regionZ,Playin,W1,W4,W3,W2,WF,X1,X4,X3,X2,XF,Y1,Y4,Y3,Y2,YF,Z1,Z4,Z3,Z2,ZF,Final
1996,1995-1996,10/30/1995,East,Midwest,Southeast,West,NONE,Providence,Providence,Richmond,Richmond,Atlanta,Dallas,Dallas,Milwaukee,Milwaukee,Minneapolis,Indianapolis,Indianapolis,Orlando,Orlando,Lexington,Albuquerque,Albuquerque,Tempe,Tempe,Denver,East Rutherford
1997,1996-1997,10/28/1996,East,Southeast,Midwest,West,NONE,Winston-Salem,Winston-Salem,Pittsburgh,Pittsburgh,Syracuse,Memphis,Memphis,Charlotte,Charlotte,Birmingham,Kansas City,Kansas City,Auburn Hills,Auburn Hills,San Antonio,Salt Lake City,Salt Lake City,Tucson,Tucson,San Jose,Indianapolis
1998,1997-1998,10/27/1997,East,West,Midwest,South,NONE,Hartford,Hartford,Washington,Washington,Greensboro,Sacramento,Sacramento,Boise,Boise,Anaheim,Oklahoma City,Oklahoma City,Chicago,Chicago,St Louis,Lexington,Lexington,Atlanta,Atlanta,St Petersburg,San Antonio
1999,1998-1999,10/26/1998,East,Midwest,South,West,NONE,Charlotte,Charlotte,Boston,Boston,East Rutherford,Milwaukee,Milwaukee,New Orleans,New Orleans,St Louis,Indianapolis,Indianapolis,Orlando,Orlando,Knoxville,Denver,Denver,Seattle,Seattle,Phoenix,St Petersburg
2000,1999-2000,11/1/1999,East,South,Midwest,West,NONE,Winston-Salem,Winston-Salem,Buffalo,Buffalo,Syracuse,Birmingham,Birmingham,Nashville,Nashville,Austin,Cleveland,Cleveland,Minneapolis,Minneapolis,Auburn Hills,Salt Lake City,Salt Lake City,Tucson,Tucson,Albuquerque,Indianapolis
2001,2000-2001,10/30/2000,East,West,Midwest,South,Dayton,Greensboro,Greensboro,Uniondale,Uniondale,Philadelphia,San Diego,San Diego,Boise,Boise,Anaheim,Dayton,Dayton,Kansas City,Kansas City,San Antonio,Memphis,Memphis,New Orleans,New Orleans,Atlanta,Minneapolis
2002,2001-2002,10/29/2001,East,Midwest,South,West,Dayton,Washington,St Louis,Chicago,Washington,Syracuse,St Louis,Chicago,Dallas,Sacramento,Madison,Greenville,Sacramento,Pittsburgh,Greenville,Lexington,Pittsburgh,Albuquerque,Albuquerque,Dallas,San Jose,Atlanta
2003,2002-2003,11/4/2002,East,South,Midwest,West,Dayton,Oklahoma City,Birmingham,Boston,Tampa,Albany,Birmingham,Spokane,Nashville,Tampa,San Antonio,Nashville,Spokane,Indianapolis,Boston,Minneapolis,Salt Lake City,Indianapolis,Salt Lake City,Oklahoma City,Anaheim,New Orleans
2004,2003-2004,11/3/2003,Atlanta,Phoenix,EastRutherford,StLouis,Dayton,Raleigh,Columbus,Denver,Orlando,Atlanta,Seattle,Denver,Orlando,Buffalo,Phoenix,Buffalo,Raleigh,Milwaukee,Kansas City,East Rutherford,Columbus,Kansas City,Milwaukee,Seattle,St Louis,San Antonio
2005,2004-2005,11/1/2004,Albuquerque,Chicago,Austin,Syracuse,Dayton,Boise,Nashville,Tucson,Cleveland,Albuquerque,Indianapolis,Cleveland,Boise,Oklahoma City,Chicago,Charlotte,Worcester,Tucson,Indianapolis,Austin,Charlotte,Nashville,Oklahoma City,Worcester,Syracuse,St Louis
2006,2005-2006,10/31/2005,Atlanta,Oakland,Minneapolis,WashingtonDC,Dayton,Greensboro,Jacksonville,Auburn Hills,Dallas,Atlanta,Dallas,Auburn Hills,Salt Lake City,San Diego,Oakland,Philadelphia,Salt Lake City,Jacksonville,Dayton,Minneapolis,Philadelphia,San Diego,Dayton,Greensboro,Washington,Indianapolis
2007,2006-2007,10/30/2006,East,South,Midwest,West,Dayton,Winston-Salem,Spokane,Sacramento,Winston-Salem,East Rutherford,Lexington,Columbus,Lexington,New Orleans,San Antonio,New Orleans,Buffalo,Spokane,Chicago,St Louis,Chicago,Buffalo,Columbus,Sacramento,San Jose,Atlanta
2008,2007-2008,11/5/2007,East,Midwest,South,West,Dayton,Raleigh,Denver,Birmingham,Birmingham,Charlotte,Omaha,Tampa,Omaha,Raleigh,Detroit,Little Rock,Denver,Anaheim,Little Rock,Houston,Anaheim,Tampa,Washington,Washington,Phoenix,San Antonio
2009,2008-2009,11/3/2008,East,South,Midwest,West,Dayton,Dayton,Boise,Philadelphia,Greensboro,Boston,Greensboro,Portland,Miami,Kansas City,Memphis,Dayton,Miami,Minneapolis,Minneapolis,Indianapolis,Philadelphia,Portland,Boise,Kansas City,Glendale,Detroit
2010,2009-2010,11/2/2009,East,South,Midwest,West,Dayton,New Orleans,Jacksonville,San Jose,Buffalo,Syracuse,Jacksonville,Spokane,New Orleans,Providence,Houston,Oklahoma City,Spokane,Providence,Milwaukee,St Louis,Buffalo,San Jose,Milwaukee,Oklahoma City,Salt Lake City,Indianapolis
2011,2010-2011,11/1/2010,East,West,Southeast,Southwest,Dayton,Cleveland,Tampa,Cleveland,Charlotte,Newark,Washington,Tucson,Denver,Tampa,New Orleans,Tulsa,Denver,Chicago,Chicago,San Antonio,Charlotte,Tulsa,Washington,Tucson,Anaheim,Houston
2012,2011-2012,10/31/2011,East,Midwest,South,West,Dayton,Pittsburgh,Albuquerque,Nashville,Pittsburgh,Boston,Greensboro,Nashville,Columbus,Omaha,St Louis,Louisville,Portland,Albuquerque,Greensboro,Atlanta,Columbus,Portland,Louisville,Omaha,Phoenix,New Orleans
2013,2012-2013,11/5/2012,East,South,Midwest,West,Dayton,Dayton,San Jose,Lexington,Austin,Washington,Kansas City,Auburn Hills,Austin,Philadelphia,Arlington,Lexington,San Jose,Auburn Hills,Philadelphia,Indianapolis,Salt Lake City,Kansas City,Salt Lake City,Dayton,Los Angeles,Atlanta
2014,2013-2014,11/4/2013,East,South,Midwest,West,Dayton,Raleigh,Spokane,San Antonio,Buffalo,New York,Orlando,San Diego,Buffalo,St Louis,Memphis,San Diego,Spokane,San Antonio,Milwaukee,Anaheim,St Louis,Orlando,Raleigh,Milwaukee,Indianapolis,Arlington
