season,slot,strongseed,weakseed,host,lat,long
1985,R1W1,W01,W16,Hartford,41.7627,-72.6743
1985,R1W2,W02,W15,Atlanta,33.7550,-84.39
1985,R1W3,W03,W14,Atlanta,33.7550,-84.39
1985,R1W4,W04,W13,Hartford,41.7627,-72.6743
1985,R1W5,W05,W12,Hartford,41.7627,-72.6743
1985,R1W6,W06,W11,Atlanta,33.7550,-84.39
1985,R1W7,W07,W10,Atlanta,33.7550,-84.39
1985,R1W8,W08,W09,Hartford,41.7627,-72.6743
1985,R1X1,X01,X16,Tulsa,36.1314,-95.9372
1985,R1X2,X02,X15,Houston,29.7604,-95.3698
1985,R1X3,X03,X14,Houston,29.7604,-95.3698
1985,R1X4,X04,X13,Tulsa,36.1314,-95.9372
1985,R1X5,X05,X12,Tulsa,36.1314,-95.9372
1985,R1X6,X06,X11,Houston,29.7604,-95.3698
1985,R1X7,X07,X10,Houston,29.7604,-95.3698
1985,R1X8,X08,X09,Tulsa,36.1314,-95.9372
1985,R1Y1,Y01,Y16,Dayton,39.7594,-84.1917
1985,R1Y2,Y02,Y15,South Bend,41.6725,-86.2553
1985,R1Y3,Y03,Y14,South Bend,41.6725,-86.2553
1985,R1Y4,Y04,Y13,Dayton,39.7594,-84.1917
1985,R1Y5,Y05,Y12,Dayton,39.7594,-84.1917
1985,R1Y6,Y06,Y11,South Bend,41.6725,-86.2553
1985,R1Y7,Y07,Y10,South Bend,41.6725,-86.2553
1985,R1Y8,Y08,Y09,Dayton,39.7594,-84.1917
1985,R1Z1,Z01,Z16,Salt Lake City,40.7500,-111.8833
1985,R1Z2,Z02,Z15,Albuquerque,35.1107,-106.6100
1985,R1Z3,Z03,Z14,Albuquerque,35.1107,-106.6100
1985,R1Z4,Z04,Z13,Salt Lake City,40.7500,-111.8833
1985,R1Z5,Z05,Z12,Salt Lake City,40.7500,-111.8833
1985,R1Z6,Z06,Z11,Albuquerque,35.1107,-106.6100
1985,R1Z7,Z07,Z10,Albuquerque,35.1107,-106.6100
1985,R1Z8,Z08,Z09,Salt Lake City,40.7500,-111.8833
1985,R2W1,R1W1,R1W8,Hartford,41.7627,-72.6743
1985,R2W2,R1W2,R1W7,Atlanta,33.7550,-84.39
1985,R2W3,R1W3,R1W6,Atlanta,33.7550,-84.39
1985,R2W4,R1W4,R1W5,Hartford,41.7627,-72.6743
1985,R2X1,R1X1,R1X8,Tulsa,36.1314,-95.9372
1985,R2X2,R1X2,R1X7,Houston,29.7604,-95.3698
1985,R2X3,R1X3,R1X6,Houston,29.7604,-95.3698
1985,R2X4,R1X4,R1X5,Tulsa,36.1314,-95.9372
1985,R2Y1,R1Y1,R1Y8,Dayton,39.7594,-84.1917
1985,R2Y2,R1Y2,R1Y7,South Bend,41.6725,-86.2553
1985,R2Y3,R1Y3,R1Y6,South Bend,41.6725,-86.2553
1985,R2Y4,R1Y4,R1Y5,Dayton,39.7594,-84.1917
1985,R2Z1,R1Z1,R1Z8,Salt Lake City,40.7500,-111.8833
1985,R2Z2,R1Z2,R1Z7,Albuquerque,35.1107,-106.6100
1985,R2Z3,R1Z3,R1Z6,Albuquerque,35.1107,-106.6100
1985,R2Z4,R1Z4,R1Z5,Salt Lake City,40.7500,-111.8833
1985,R3W1,R2W1,R2W4,Providence,41.8236,-71.4222
1985,R3W2,R2W2,R2W3,Providence,41.8236,-71.4222
1985,R3X1,R2X1,R2X4,Dallas,32.7767,-96.7970
1985,R3X2,R2X2,R2X3,Dallas,32.7767,-96.7970
1985,R3Y1,R2Y1,R2Y4,Birmingham,33.525,-86.813
1985,R3Y2,R2Y2,R2Y3,Birmingham,33.525,-86.813
1985,R3Z1,R2Z1,R2Z4,Denver,39.7392,-104.9903
1985,R3Z2,R2Z2,R2Z3,Denver,39.7392,-104.9903
1985,R4W1,R3W1,R3W2,Providence,41.8236,-71.4222
1985,R4X1,R3X1,R3X2,Dallas,32.7767,-96.7970
1985,R4Y1,R3Y1,R3Y2,Birmingham,33.525,-86.813
1985,R4Z1,R3Z1,R3Z2,Denver,39.7392,-104.9903
1985,R5WX,R4W1,R4X1,Lexington,38.0297,-84.4947
1985,R5YZ,R4Y1,R4Z1,Lexington,38.0297,-84.4947
1985,R6CH,R5WX,R5YZ,Lexington,38.0297,-84.4947
1986,R1W1,W01,W16,Greensboro,36.0800,-79.8194
1986,R1W2,W02,W15,Syracuse,43.0469,-76.1444
1986,R1W3,W03,W14,Syracuse,43.0469,-76.1444
1986,R1W4,W04,W13,Greensboro,36.0800,-79.8194
1986,R1W5,W05,W12,Greensboro,36.0800,-79.8194
1986,R1W6,W06,W11,Syracuse,43.0469,-76.1444
1986,R1W7,W07,W10,Syracuse,43.0469,-76.1444
1986,R1W8,W08,W09,Greensboro,36.0800,-79.8194
1986,R1X1,X01,X16,Dayton,39.7594,-84.1917
1986,R1X2,X02,X15,Minneapolis,44.9778,-93.2650
1986,R1X3,X03,X14,Minneapolis,44.9778,-93.2650
1986,R1X4,X04,X13,Dayton,39.7594,-84.1917
1986,R1X5,X05,X12,Dayton,39.7594,-84.1917
1986,R1X6,X06,X11,Minneapolis,44.9778,-93.2650
1986,R1X7,X07,X10,Minneapolis,44.9778,-93.2650
1986,R1X8,X08,X09,Dayton,39.7594,-84.1917
1986,R1Y1,Y01,Y16,Charlotte,35.2269,-80.8433
1986,R1Y2,Y02,Y15,Baton Rouge,30.4500,91.1400
1986,R1Y3,Y03,Y14,Baton Rouge,30.4500,91.1400
1986,R1Y4,Y04,Y13,Charlotte,35.2269,-80.8433
1986,R1Y5,Y05,Y12,Charlotte,35.2269,-80.8433
1986,R1Y6,Y06,Y11,Baton Rouge,30.4500,91.1400
1986,R1Y7,Y07,Y10,Baton Rouge,30.4500,91.1400
1986,R1Y8,Y08,Y09,Charlotte,35.2269,-80.8433
1986,R1Z1,Z01,Z16,Long Beach,33.7683,-118.1956
1986,R1Z2,Z02,Z15,Ogden,41.2278,-111.9611
1986,R1Z3,Z03,Z14,Ogden,41.2278,-111.9611
1986,R1Z4,Z04,Z13,Long Beach,33.7683,-118.1956
1986,R1Z5,Z05,Z12,Long Beach,33.7683,-118.1956
1986,R1Z6,Z06,Z11,Ogden,41.2278,-111.9611
1986,R1Z7,Z07,Z10,Ogden,41.2278,-111.9611
1986,R1Z8,Z08,Z09,Long Beach,33.7683,-118.1956
1986,R2W1,R1W1,R1W8,Greensboro,36.0800,-79.8194
1986,R2W2,R1W2,R1W7,Syracuse,43.0469,-76.1444
1986,R2W3,R1W3,R1W6,Syracuse,43.0469,-76.1444
1986,R2W4,R1W4,R1W5,Greensboro,36.0800,-79.8194
1986,R2X1,R1X1,R1X8,Dayton,39.7594,-84.1917
1986,R2X2,R1X2,R1X7,Minneapolis,44.9778,-93.2650
1986,R2X3,R1X3,R1X6,Minneapolis,44.9778,-93.2650
1986,R2X4,R1X4,R1X5,Dayton,39.7594,-84.1917
1986,R2Y1,R1Y1,R1Y8,Charlotte,35.2269,-80.8433
1986,R2Y2,R1Y2,R1Y7,Baton Rouge,30.4500,91.1400
1986,R2Y3,R1Y3,R1Y6,Baton Rouge,30.4500,91.1400
1986,R2Y4,R1Y4,R1Y5,Charlotte,35.2269,-80.8433
1986,R2Z1,R1Z1,R1Z8,Long Beach,33.7683,-118.1956
1986,R2Z2,R1Z2,R1Z7,Ogden,41.2278,-111.9611
1986,R2Z3,R1Z3,R1Z6,Ogden,41.2278,-111.9611
1986,R2Z4,R1Z4,R1Z5,Long Beach,33.7683,-118.1956
1986,R3W1,R2W1,R2W4,East Rutherford,40.8171,-74.0850
1986,R3W2,R2W2,R2W3,East Rutherford,40.8171,-74.0850
1986,R3X1,R2X1,R2X4,Kansas City,39.0997,-94.5783
1986,R3X2,R2X2,R2X3,Kansas City,39.0997,-94.5783
1986,R3Y1,R2Y1,R2Y4,Atlanta,33.7550,-84.39
1986,R3Y2,R2Y2,R2Y3,Atlanta,33.7550,-84.39
1986,R3Z1,R2Z1,R2Z4,Houston,29.7604,-95.3698
1986,R3Z2,R2Z2,R2Z3,Houston,29.7604,-95.3698
1986,R4W1,R3W1,R3W2,East Rutherford,40.8171,-74.0850
1986,R4X1,R3X1,R3X2,Kansas City,39.0997,-94.5783
1986,R4Y1,R3Y1,R3Y2,Atlanta,33.7550,-84.39
1986,R4Z1,R3Z1,R3Z2,Houston,29.7604,-95.3698
1986,R5WX,R4W1,R4X1,Dallas,32.7767,-96.7970
1986,R5YZ,R4Y1,R4Z1,Dallas,32.7767,-96.7970
1986,R6CH,R5WX,R5YZ,Dallas,32.7767,-96.7970
1987,R1W1,W01,W16,Charlotte,35.2269,-80.8433
1987,R1W2,W02,W15,Syracuse,43.0469,-76.1444
1987,R1W3,W03,W14,Syracuse,43.0469,-76.1444
1987,R1W4,W04,W13,Charlotte,35.2269,-80.8433
1987,R1W5,W05,W12,Charlotte,35.2269,-80.8433
1987,R1W6,W06,W11,Syracuse,43.0469,-76.1444
1987,R1W7,W07,W10,Syracuse,43.0469,-76.1444
1987,R1W8,W08,W09,Charlotte,35.2269,-80.8433
1987,R1X1,X01,X16,Indianapolis,39.7910,-86.1480
1987,R1X2,X02,X15,Chicago,41.8369,-87.6847
1987,R1X3,X03,X14,Chicago,41.8369,-87.6847
1987,R1X4,X04,X13,Indianapolis,39.7910,-86.1480
1987,R1X5,X05,X12,Indianapolis,39.7910,-86.1480
1987,R1X6,X06,X11,Chicago,41.8369,-87.6847
1987,R1X7,X07,X10,Chicago,41.8369,-87.6847
1987,R1X8,X08,X09,Indianapolis,39.7910,-86.1480
1987,R1Y1,Y01,Y16,Atlanta,33.7550,-84.39
1987,R1Y2,Y02,Y15,Birmingham,33.525,-86.813
1987,R1Y3,Y03,Y14,Birmingham,33.525,-86.813
1987,R1Y4,Y04,Y13,Atlanta,33.7550,-84.39
1987,R1Y5,Y05,Y12,Atlanta,33.7550,-84.39
1987,R1Y6,Y06,Y11,Birmingham,33.525,-86.813
1987,R1Y7,Y07,Y10,Birmingham,33.525,-86.813
1987,R1Y8,Y08,Y09,Atlanta,33.7550,-84.39
1987,R1Z1,Z01,Z16,Salt Lake City,40.7500,-111.8833
1987,R1Z2,Z02,Z15,Tucson,32.2217,-110.9264
1987,R1Z3,Z03,Z14,Tucson,32.2217,-110.9264
1987,R1Z4,Z04,Z13,Salt Lake City,40.7500,-111.8833
1987,R1Z5,Z05,Z12,Salt Lake City,40.7500,-111.8833
1987,R1Z6,Z06,Z11,Tucson,32.2217,-110.9264
1987,R1Z7,Z07,Z10,Tucson,32.2217,-110.9264
1987,R1Z8,Z08,Z09,Salt Lake City,40.7500,-111.8833
1987,R2W1,R1W1,R1W8,Charlotte,35.2269,-80.8433
1987,R2W2,R1W2,R1W7,Syracuse,43.0469,-76.1444
1987,R2W3,R1W3,R1W6,Syracuse,43.0469,-76.1444
1987,R2W4,R1W4,R1W5,Charlotte,35.2269,-80.8433
1987,R2X1,R1X1,R1X8,Indianapolis,39.7910,-86.1480
1987,R2X2,R1X2,R1X7,Chicago,41.8369,-87.6847
1987,R2X3,R1X3,R1X6,Chicago,41.8369,-87.6847
1987,R2X4,R1X4,R1X5,Indianapolis,39.7910,-86.1480
1987,R2Y1,R1Y1,R1Y8,Atlanta,33.7550,-84.39
1987,R2Y2,R1Y2,R1Y7,Birmingham,33.525,-86.813
1987,R2Y3,R1Y3,R1Y6,Birmingham,33.525,-86.813
1987,R2Y4,R1Y4,R1Y5,Atlanta,33.7550,-84.39
1987,R2Z1,R1Z1,R1Z8,Salt Lake City,40.7500,-111.8833
1987,R2Z2,R1Z2,R1Z7,Tucson,32.2217,-110.9264
1987,R2Z3,R1Z3,R1Z6,Tucson,32.2217,-110.9264
1987,R2Z4,R1Z4,R1Z5,Salt Lake City,40.7500,-111.8833
1987,R3W1,R2W1,R2W4,East Rutherford,40.8171,-74.0850
1987,R3W2,R2W2,R2W3,East Rutherford,40.8171,-74.0850
1987,R3X1,R2X1,R2X4,Cincinnati,39.1000,-84.5167
1987,R3X2,R2X2,R2X3,Cincinnati,39.1000,-84.5167
1987,R3Y1,R2Y1,R2Y4,Louisville,38.2500,-85.7667
1987,R3Y2,R2Y2,R2Y3,Louisville,38.2500,-85.7667
1987,R3Z1,R2Z1,R2Z4,Seattle,47.6097,-122.3331
1987,R3Z2,R2Z2,R2Z3,Seattle,47.6097,-122.3331
1987,R4W1,R3W1,R3W2,East Rutherford,40.8171,-74.0850
1987,R4X1,R3X1,R3X2,Cincinnati,39.1000,-84.5167
1987,R4Y1,R3Y1,R3Y2,Louisville,38.2500,-85.7667
1987,R4Z1,R3Z1,R3Z2,Seattle,47.6097,-122.3331
1987,R5WX,R4W1,R4X1,New Orleans,29.9667,-90.0500
1987,R5YZ,R4Y1,R4Z1,New Orleans,29.9667,-90.0500
1987,R6CH,R5WX,R5YZ,New Orleans,29.9667,-90.0500
1988,R1W1,W01,W16,Hartford,41.7627,-72.6743
1988,R1W2,W02,W15,Chapel Hill,35.9333,-79.0333
1988,R1W3,W03,W14,Chapel Hill,35.9333,-79.0333
1988,R1W4,W04,W13,Hartford,41.7627,-72.6743
1988,R1W5,W05,W12,Hartford,41.7627,-72.6743
1988,R1W6,W06,W11,Chapel Hill,35.9333,-79.0333
1988,R1W7,W07,W10,Chapel Hill,35.9333,-79.0333
1988,R1W8,W08,W09,Hartford,41.7627,-72.6743
1988,R1X1,X01,X16,South Bend,41.6725,-86.2553
1988,R1X2,X02,X15,Lincoln,40.8106,-96.6803
1988,R1X3,X03,X14,Lincoln,40.8106,-96.6803
1988,R1X4,X04,X13,South Bend,41.6725,-86.2553
1988,R1X5,X05,X12,South Bend,41.6725,-86.2553
1988,R1X6,X06,X11,Lincoln,40.8106,-96.6803
1988,R1X7,X07,X10,Lincoln,40.8106,-96.6803
1988,R1X8,X08,X09,South Bend,41.6725,-86.2553
1988,R1Y1,Y01,Y16,Atlanta,33.7550,-84.39
1988,R1Y2,Y02,Y15,Cincinnati,39.1000,-84.5167
1988,R1Y3,Y03,Y14,Cincinnati,39.1000,-84.5167
1988,R1Y4,Y04,Y13,Atlanta,33.7550,-84.39
1988,R1Y5,Y05,Y12,Atlanta,33.7550,-84.39
1988,R1Y6,Y06,Y11,Cincinnati,39.1000,-84.5167
1988,R1Y7,Y07,Y10,Cincinnati,39.1000,-84.5167
1988,R1Y8,Y08,Y09,Atlanta,33.7550,-84.39
1988,R1Z1,Z01,Z16,Los Angeles,34.0500,-118.2500
1988,R1Z2,Z02,Z15,Salt Lake City,40.7500,-111.8833
1988,R1Z3,Z03,Z14,Salt Lake City,40.7500,-111.8833
1988,R1Z4,Z04,Z13,Los Angeles,34.0500,-118.2500
1988,R1Z5,Z05,Z12,Los Angeles,34.0500,-118.2500
1988,R1Z6,Z06,Z11,Salt Lake City,40.7500,-111.8833
1988,R1Z7,Z07,Z10,Salt Lake City,40.7500,-111.8833
1988,R1Z8,Z08,Z09,Los Angeles,34.0500,-118.2500
1988,R2W1,R1W1,R1W8,Hartford,41.7627,-72.6743
1988,R2W2,R1W2,R1W7,Chapel Hill,35.9333,-79.0333
1988,R2W3,R1W3,R1W6,Chapel Hill,35.9333,-79.0333
1988,R2W4,R1W4,R1W5,Hartford,41.7627,-72.6743
1988,R2X1,R1X1,R1X8,South Bend,41.6725,-86.2553
1988,R2X2,R1X2,R1X7,Lincoln,40.8106,-96.6803
1988,R2X3,R1X3,R1X6,Lincoln,40.8106,-96.6803
1988,R2X4,R1X4,R1X5,South Bend,41.6725,-86.2553
1988,R2Y1,R1Y1,R1Y8,Atlanta,33.7550,-84.39
1988,R2Y2,R1Y2,R1Y7,Cincinnati,39.1000,-84.5167
1988,R2Y3,R1Y3,R1Y6,Cincinnati,39.1000,-84.5167
1988,R2Y4,R1Y4,R1Y5,Atlanta,33.7550,-84.39
1988,R2Z1,R1Z1,R1Z8,Los Angeles,34.0500,-118.2500
1988,R2Z2,R1Z2,R1Z7,Salt Lake City,40.7500,-111.8833
1988,R2Z3,R1Z3,R1Z6,Salt Lake City,40.7500,-111.8833
1988,R2Z4,R1Z4,R1Z5,Los Angeles,34.0500,-118.2500
1988,R3W1,R2W1,R2W4,East Rutherford,40.8171,-74.0850
1988,R3W2,R2W2,R2W3,East Rutherford,40.8171,-74.0850
1988,R3X1,R2X1,R2X4,Pontiac,42.6461,-83.2925
1988,R3X2,R2X2,R2X3,Pontiac,42.6461,-83.2925
1988,R3Y1,R2Y1,R2Y4,Birmingham,33.525,-86.813
1988,R3Y2,R2Y2,R2Y3,Birmingham,33.525,-86.813
1988,R3Z1,R2Z1,R2Z4,Seattle,47.6097,-122.3331
1988,R3Z2,R2Z2,R2Z3,Seattle,47.6097,-122.3331
1988,R4W1,R3W1,R3W2,East Rutherford,40.8171,-74.0850
1988,R4X1,R3X1,R3X2,Pontiac,42.6461,-83.2925
1988,R4Y1,R3Y1,R3Y2,Birmingham,33.525,-86.813
1988,R4Z1,R3Z1,R3Z2,Seattle,47.6097,-122.3331
1988,R5WX,R4W1,R4X1,Kansas City,39.0997,-94.5783
1988,R5YZ,R4Y1,R4Z1,Kansas City,39.0997,-94.5783
1988,R6CH,R5WX,R5YZ,Kansas City,39.0997,-94.5783
1989,R1W1,W01,W16,Providence,41.8236,-71.4222
1989,R1W2,W02,W15,Greensboro,36.0800,-79.8194
1989,R1W3,W03,W14,Greensboro,36.0800,-79.8194
1989,R1W4,W04,W13,Providence,41.8236,-71.4222
1989,R1W5,W05,W12,Providence,41.8236,-71.4222
1989,R1W6,W06,W11,Greensboro,36.0800,-79.8194
1989,R1W7,W07,W10,Greensboro,36.0800,-79.8194
1989,R1W8,W08,W09,Providence,41.8236,-71.4222
1989,R1X1,X01,X16,Indianapolis,39.7910,-86.1480
1989,R1X2,X02,X15,Dallas,32.7767,-96.7970
1989,R1X3,X03,X14,Dallas,32.7767,-96.7970
1989,R1X4,X04,X13,Indianapolis,39.7910,-86.1480
1989,R1X5,X05,X12,Indianapolis,39.7910,-86.1480
1989,R1X6,X06,X11,Dallas,32.7767,-96.7970
1989,R1X7,X07,X10,Dallas,32.7767,-96.7970
1989,R1X8,X08,X09,Indianapolis,39.7910,-86.1480
1989,R1Y1,Y01,Y16,Nashville,36.1667,-86.7833
1989,R1Y2,Y02,Y15,Atlanta,33.7550,-84.39
1989,R1Y3,Y03,Y14,Atlanta,33.7550,-84.39
1989,R1Y4,Y04,Y13,Nashville,36.1667,-86.7833
1989,R1Y5,Y05,Y12,Nashville,36.1667,-86.7833
1989,R1Y6,Y06,Y11,Atlanta,33.7550,-84.39
1989,R1Y7,Y07,Y10,Atlanta,33.7550,-84.39
1989,R1Y8,Y08,Y09,Nashville,36.1667,-86.7833
1989,R1Z1,Z01,Z16,Boise,43.6167,-116.2
1989,R1Z2,Z02,Z15,Tucson,32.2217,-110.9264
1989,R1Z3,Z03,Z14,Tucson,32.2217,-110.9264
1989,R1Z4,Z04,Z13,Boise,43.6167,-116.2
1989,R1Z5,Z05,Z12,Boise,43.6167,-116.2
1989,R1Z6,Z06,Z11,Tucson,32.2217,-110.9264
1989,R1Z7,Z07,Z10,Tucson,32.2217,-110.9264
1989,R1Z8,Z08,Z09,Boise,43.6167,-116.2
1989,R2W1,R1W1,R1W8,Providence,41.8236,-71.4222
1989,R2W2,R1W2,R1W7,Greensboro,36.0800,-79.8194
1989,R2W3,R1W3,R1W6,Greensboro,36.0800,-79.8194
1989,R2W4,R1W4,R1W5,Providence,41.8236,-71.4222
1989,R2X1,R1X1,R1X8,Indianapolis,39.7910,-86.1480
1989,R2X2,R1X2,R1X7,Dallas,32.7767,-96.7970
1989,R2X3,R1X3,R1X6,Dallas,32.7767,-96.7970
1989,R2X4,R1X4,R1X5,Indianapolis,39.7910,-86.1480
1989,R2Y1,R1Y1,R1Y8,Nashville,36.1667,-86.7833
1989,R2Y2,R1Y2,R1Y7,Atlanta,33.7550,-84.39
1989,R2Y3,R1Y3,R1Y6,Atlanta,33.7550,-84.39
1989,R2Y4,R1Y4,R1Y5,Nashville,36.1667,-86.7833
1989,R2Z1,R1Z1,R1Z8,Boise,43.6167,-116.2
1989,R2Z2,R1Z2,R1Z7,Tucson,32.2217,-110.9264
1989,R2Z3,R1Z3,R1Z6,Tucson,32.2217,-110.9264
1989,R2Z4,R1Z4,R1Z5,Boise,43.6167,-116.2
1989,R3W1,R2W1,R2W4,East Rutherford,40.8171,-74.0850
1989,R3W2,R2W2,R2W3,East Rutherford,40.8171,-74.0850
1989,R3X1,R2X1,R2X4,Minneapolis,44.9778,-93.2650
1989,R3X2,R2X2,R2X3,Minneapolis,44.9778,-93.2650
1989,R3Y1,R2Y1,R2Y4,Lexington,38.0297,-84.4947
1989,R3Y2,R2Y2,R2Y3,Lexington,38.0297,-84.4947
1989,R3Z1,R2Z1,R2Z4,Denver,39.7392,-104.9903
1989,R3Z2,R2Z2,R2Z3,Denver,39.7392,-104.9903
1989,R4W1,R3W1,R3W2,East Rutherford,40.8171,-74.0850
1989,R4X1,R3X1,R3X2,Minneapolis,44.9778,-93.2650
1989,R4Y1,R3Y1,R3Y2,Lexington,38.0297,-84.4947
1989,R4Z1,R3Z1,R3Z2,Denver,39.7392,-104.9903
1989,R5WX,R4W1,R4X1,Seattle,47.6097,-122.3331
1989,R5YZ,R4Y1,R4Z1,Seattle,47.6097,-122.3331
1989,R6CH,R5WX,R5YZ,Seattle,47.6097,-122.3331
1990,R1W1,W01,W16,Hartford,41.7627,-72.6743
1990,R1W2,W02,W15,Atlanta,33.7550,-84.39
1990,R1W3,W03,W14,Atlanta,33.7550,-84.39
1990,R1W4,W04,W13,Hartford,41.7627,-72.6743
1990,R1W5,W05,W12,Hartford,41.7627,-72.6743
1990,R1W6,W06,W11,Atlanta,33.7550,-84.39
1990,R1W7,W07,W10,Atlanta,33.7550,-84.39
1990,R1W8,W08,W09,Hartford,41.7627,-72.6743
1990,R1X1,X01,X16,Austin,30.2500,-97.75
1990,R1X2,X02,X15,Indianapolis,39.7910,-86.1480
1990,R1X3,X03,X14,Indianapolis,39.7910,-86.1480
1990,R1X4,X04,X13,Austin,30.2500,-97.75
1990,R1X5,X05,X12,Austin,30.2500,-97.75
1990,R1X6,X06,X11,Indianapolis,39.7910,-86.1480
1990,R1X7,X07,X10,Indianapolis,39.7910,-86.1480
1990,R1X8,X08,X09,Austin,30.2500,-97.75
1990,R1Y1,Y01,Y16,Knoxville,35.9728,-83.9422
1990,R1Y2,Y02,Y15,Richmond,37.5333,-77.4667
1990,R1Y3,Y03,Y14,Richmond,37.5333,-77.4667
1990,R1Y4,Y04,Y13,Knoxville,35.9728,-83.9422
1990,R1Y5,Y05,Y12,Knoxville,35.9728,-83.9422
1990,R1Y6,Y06,Y11,Richmond,37.5333,-77.4667
1990,R1Y7,Y07,Y10,Richmond,37.5333,-77.4667
1990,R1Y8,Y08,Y09,Knoxville,35.9728,-83.9422
1990,R1Z1,Z01,Z16,Salt Lake City,40.7500,-111.8833
1990,R1Z2,Z02,Z15,Long Beach,33.7683,-118.1956
1990,R1Z3,Z03,Z14,Long Beach,33.7683,-118.1956
1990,R1Z4,Z04,Z13,Salt Lake City,40.7500,-111.8833
1990,R1Z5,Z05,Z12,Salt Lake City,40.7500,-111.8833
1990,R1Z6,Z06,Z11,Long Beach,33.7683,-118.1956
1990,R1Z7,Z07,Z10,Long Beach,33.7683,-118.1956
1990,R1Z8,Z08,Z09,Salt Lake City,40.7500,-111.8833
1990,R2W1,R1W1,R1W8,Hartford,41.7627,-72.6743
1990,R2W2,R1W2,R1W7,Atlanta,33.7550,-84.39
1990,R2W3,R1W3,R1W6,Atlanta,33.7550,-84.39
1990,R2W4,R1W4,R1W5,Hartford,41.7627,-72.6743
1990,R2X1,R1X1,R1X8,Austin,30.2500,-97.75
1990,R2X2,R1X2,R1X7,Indianapolis,39.7910,-86.1480
1990,R2X3,R1X3,R1X6,Indianapolis,39.7910,-86.1480
1990,R2X4,R1X4,R1X5,Austin,30.2500,-97.75
1990,R2Y1,R1Y1,R1Y8,Knoxville,35.9728,-83.9422
1990,R2Y2,R1Y2,R1Y7,Richmond,37.5333,-77.4667
1990,R2Y3,R1Y3,R1Y6,Richmond,37.5333,-77.4667
1990,R2Y4,R1Y4,R1Y5,Knoxville,35.9728,-83.9422
1990,R2Z1,R1Z1,R1Z8,Salt Lake City,40.7500,-111.8833
1990,R2Z2,R1Z2,R1Z7,Long Beach,33.7683,-118.1956
1990,R2Z3,R1Z3,R1Z6,Long Beach,33.7683,-118.1956
1990,R2Z4,R1Z4,R1Z5,Salt Lake City,40.7500,-111.8833
1990,R3W1,R2W1,R2W4,East Rutherford,40.8171,-74.0850
1990,R3W2,R2W2,R2W3,East Rutherford,40.8171,-74.0850
1990,R3X1,R2X1,R2X4,Dallas,32.7767,-96.7970
1990,R3X2,R2X2,R2X3,Dallas,32.7767,-96.7970
1990,R3Y1,R2Y1,R2Y4,New Orleans,29.9667,-90.0500
1990,R3Y2,R2Y2,R2Y3,New Orleans,29.9667,-90.0500
1990,R3Z1,R2Z1,R2Z4,Oakland,37.8044,-122.2708
1990,R3Z2,R2Z2,R2Z3,Oakland,37.8044,-122.2708
1990,R4W1,R3W1,R3W2,East Rutherford,40.8171,-74.0850
1990,R4X1,R3X1,R3X2,Dallas,32.7767,-96.7970
1990,R4Y1,R3Y1,R3Y2,New Orleans,29.9667,-90.0500
1990,R4Z1,R3Z1,R3Z2,Oakland,37.8044,-122.2708
1990,R5WX,R4W1,R4X1,Denver,39.7392,-104.9903
1990,R5YZ,R4Y1,R4Z1,Denver,39.7392,-104.9903
1990,R6CH,R5WX,R5YZ,Denver,39.7392,-104.9903
1991,R1W1,W01,W16,Syracuse,43.0469,-76.1444
1991,R1W2,W02,W15,College Park,38.9967,-76.9275
1991,R1W3,W03,W14,College Park,38.9967,-76.9275
1991,R1W4,W04,W13,Syracuse,43.0469,-76.1444
1991,R1W5,W05,W12,Syracuse,43.0469,-76.1444
1991,R1W6,W06,W11,College Park,38.9967,-76.9275
1991,R1W7,W07,W10,College Park,38.9967,-76.9275
1991,R1W8,W08,W09,Syracuse,43.0469,-76.1444
1991,R1X1,X01,X16,Dayton,39.7594,-84.1917
1991,R1X2,X02,X15,Minneapolis,44.9778,-93.2650
1991,R1X3,X03,X14,Minneapolis,44.9778,-93.2650
1991,R1X4,X04,X13,Dayton,39.7594,-84.1917
1991,R1X5,X05,X12,Dayton,39.7594,-84.1917
1991,R1X6,X06,X11,Minneapolis,44.9778,-93.2650
1991,R1X7,X07,X10,Minneapolis,44.9778,-93.2650
1991,R1X8,X08,X09,Dayton,39.7594,-84.1917
1991,R1Y1,Y01,Y16,Atlanta,33.7550,-84.39
1991,R1Y2,Y02,Y15,Louisville,38.2500,-85.7667
1991,R1Y3,Y03,Y14,Louisville,38.2500,-85.7667
1991,R1Y4,Y04,Y13,Atlanta,33.7550,-84.39
1991,R1Y5,Y05,Y12,Atlanta,33.7550,-84.39
1991,R1Y6,Y06,Y11,Louisville,38.2500,-85.7667
1991,R1Y7,Y07,Y10,Louisville,38.2500,-85.7667
1991,R1Y8,Y08,Y09,Atlanta,33.7550,-84.39
1991,R1Z1,Z01,Z16,Tucson,32.2217,-110.9264
1991,R1Z2,Z02,Z15,Salt Lake City,40.7500,-111.8833
1991,R1Z3,Z03,Z14,Salt Lake City,40.7500,-111.8833
1991,R1Z4,Z04,Z13,Tucson,32.2217,-110.9264
1991,R1Z5,Z05,Z12,Tucson,32.2217,-110.9264
1991,R1Z6,Z06,Z11,Salt Lake City,40.7500,-111.8833
1991,R1Z7,Z07,Z10,Salt Lake City,40.7500,-111.8833
1991,R1Z8,Z08,Z09,Tucson,32.2217,-110.9264
1991,R2W1,R1W1,R1W8,Syracuse,43.0469,-76.1444
1991,R2W2,R1W2,R1W7,College Park,38.9967,-76.9275
1991,R2W3,R1W3,R1W6,College Park,38.9967,-76.9275
1991,R2W4,R1W4,R1W5,Syracuse,43.0469,-76.1444
1991,R2X1,R1X1,R1X8,Dayton,39.7594,-84.1917
1991,R2X2,R1X2,R1X7,Minneapolis,44.9778,-93.2650
1991,R2X3,R1X3,R1X6,Minneapolis,44.9778,-93.2650
1991,R2X4,R1X4,R1X5,Dayton,39.7594,-84.1917
1991,R2Y1,R1Y1,R1Y8,Atlanta,33.7550,-84.39
1991,R2Y2,R1Y2,R1Y7,Louisville,38.2500,-85.7667
1991,R2Y3,R1Y3,R1Y6,Louisville,38.2500,-85.7667
1991,R2Y4,R1Y4,R1Y5,Atlanta,33.7550,-84.39
1991,R2Z1,R1Z1,R1Z8,Tucson,32.2217,-110.9264
1991,R2Z2,R1Z2,R1Z7,Salt Lake City,40.7500,-111.8833
1991,R2Z3,R1Z3,R1Z6,Salt Lake City,40.7500,-111.8833
1991,R2Z4,R1Z4,R1Z5,Tucson,32.2217,-110.9264
1991,R3W1,R2W1,R2W4,East Rutherford,40.8171,-74.0850
1991,R3W2,R2W2,R2W3,East Rutherford,40.8171,-74.0850
1991,R3X1,R2X1,R2X4,Pontiac,42.6461,-83.2925
1991,R3X2,R2X2,R2X3,Pontiac,42.6461,-83.2925
1991,R3Y1,R2Y1,R2Y4,Charlotte,35.2269,-80.8433
1991,R3Y2,R2Y2,R2Y3,Charlotte,35.2269,-80.8433
1991,R3Z1,R2Z1,R2Z4,Seattle,47.6097,-122.3331
1991,R3Z2,R2Z2,R2Z3,Seattle,47.6097,-122.3331
1991,R4W1,R3W1,R3W2,East Rutherford,40.8171,-74.0850
1991,R4X1,R3X1,R3X2,Pontiac,42.6461,-83.2925
1991,R4Y1,R3Y1,R3Y2,Charlotte,35.2269,-80.8433
1991,R4Z1,R3Z1,R3Z2,Seattle,47.6097,-122.3331
1991,R5WX,R4W1,R4X1,Indianapolis,39.7910,-86.1480
1991,R5YZ,R4Y1,R4Z1,Indianapolis,39.7910,-86.1480
1991,R6CH,R5WX,R5YZ,Indianapolis,39.7910,-86.1480
1992,R1W1,W01,W16,Greensboro,36.0800,-79.8194
1992,R1W2,W02,W15,Worcester,42.2667,-71.8000
1992,R1W3,W03,W14,Worcester,42.2667,-71.8000
1992,R1W4,W04,W13,Greensboro,36.0800,-79.8194
1992,R1W5,W05,W12,Greensboro,36.0800,-79.8194
1992,R1W6,W06,W11,Worcester,42.2667,-71.8000
1992,R1W7,W07,W10,Worcester,42.2667,-71.8000
1992,R1W8,W08,W09,Greensboro,36.0800,-79.8194
1992,R1X1,X01,X16,Dayton,39.7594,-84.1917
1992,R1X2,X02,X15,Milwaukee,43.0500,-87.9500
1992,R1X3,X03,X14,Milwaukee,43.0500,-87.9500
1992,R1X4,X04,X13,Dayton,39.7594,-84.1917
1992,R1X5,X05,X12,Dayton,39.7594,-84.1917
1992,R1X6,X06,X11,Milwaukee,43.0500,-87.9500
1992,R1X7,X07,X10,Milwaukee,43.0500,-87.9500
1992,R1X8,X08,X09,Dayton,39.7594,-84.1917
1992,R1Y1,Y01,Y16,Cincinnati,39.1000,-84.5167
1992,R1Y2,Y02,Y15,Atlanta,33.7550,-84.39
1992,R1Y3,Y03,Y14,Atlanta,33.7550,-84.39
1992,R1Y4,Y04,Y13,Cincinnati,39.1000,-84.5167
1992,R1Y5,Y05,Y12,Cincinnati,39.1000,-84.5167
1992,R1Y6,Y06,Y11,Atlanta,33.7550,-84.39
1992,R1Y7,Y07,Y10,Atlanta,33.7550,-84.39
1992,R1Y8,Y08,Y09,Cincinnati,39.1000,-84.5167
1992,R1Z1,Z01,Z16,Tempe,33.4294,-111.9431
1992,R1Z2,Z02,Z15,Boise,43.6167,-116.2
1992,R1Z3,Z03,Z14,Boise,43.6167,-116.2
1992,R1Z4,Z04,Z13,Tempe,33.4294,-111.9431
1992,R1Z5,Z05,Z12,Tempe,33.4294,-111.9431
1992,R1Z6,Z06,Z11,Boise,43.6167,-116.2
1992,R1Z7,Z07,Z10,Boise,43.6167,-116.2
1992,R1Z8,Z08,Z09,Tempe,33.4294,-111.9431
1992,R2W1,R1W1,R1W8,Greensboro,36.0800,-79.8194
1992,R2W2,R1W2,R1W7,Worcester,42.2667,-71.8000
1992,R2W3,R1W3,R1W6,Worcester,42.2667,-71.8000
1992,R2W4,R1W4,R1W5,Greensboro,36.0800,-79.8194
1992,R2X1,R1X1,R1X8,Dayton,39.7594,-84.1917
1992,R2X2,R1X2,R1X7,Milwaukee,43.0500,-87.9500
1992,R2X3,R1X3,R1X6,Milwaukee,43.0500,-87.9500
1992,R2X4,R1X4,R1X5,Dayton,39.7594,-84.1917
1992,R2Y1,R1Y1,R1Y8,Cincinnati,39.1000,-84.5167
1992,R2Y2,R1Y2,R1Y7,Atlanta,33.7550,-84.39
1992,R2Y3,R1Y3,R1Y6,Atlanta,33.7550,-84.39
1992,R2Y4,R1Y4,R1Y5,Cincinnati,39.1000,-84.5167
1992,R2Z1,R1Z1,R1Z8,Tempe,33.4294,-111.9431
1992,R2Z2,R1Z2,R1Z7,Boise,43.6167,-116.2
1992,R2Z3,R1Z3,R1Z6,Boise,43.6167,-116.2
1992,R2Z4,R1Z4,R1Z5,Tempe,33.4294,-111.9431
1992,R3W1,R2W1,R2W4,Philadelphia,39.9500,-75.1667
1992,R3W2,R2W2,R2W3,Philadelphia,39.9500,-75.1667
1992,R3X1,R2X1,R2X4,Kansas City,39.0997,-94.5783
1992,R3X2,R2X2,R2X3,Kansas City,39.0997,-94.5783
1992,R3Y1,R2Y1,R2Y4,Lexington,38.0297,-84.4947
1992,R3Y2,R2Y2,R2Y3,Lexington,38.0297,-84.4947
1992,R3Z1,R2Z1,R2Z4,Albuquerque,35.1107,-106.6100
1992,R3Z2,R2Z2,R2Z3,Albuquerque,35.1107,-106.6100
1992,R4W1,R3W1,R3W2,Philadelphia,39.9500,-75.1667
1992,R4X1,R3X1,R3X2,Kansas City,39.0997,-94.5783
1992,R4Y1,R3Y1,R3Y2,Lexington,38.0297,-84.4947
1992,R4Z1,R3Z1,R3Z2,Albuquerque,35.1107,-106.6100
1992,R5WX,R4W1,R4X1,Minneapolis,44.9778,-93.2650
1992,R5YZ,R4Y1,R4Z1,Minneapolis,44.9778,-93.2650
1992,R6CH,R5WX,R5YZ,Minneapolis,44.9778,-93.2650
1993,R1W1,W01,W16,Winston-Salem,36.1028,-80.2605
1993,R1W2,W02,W15,Syracuse,43.0469,-76.1444
1993,R1W3,W03,W14,Syracuse,43.0469,-76.1444
1993,R1W4,W04,W13,Winston-Salem,36.1028,-80.2605
1993,R1W5,W05,W12,Winston-Salem,36.1028,-80.2605
1993,R1W6,W06,W11,Syracuse,43.0469,-76.1444
1993,R1W7,W07,W10,Syracuse,43.0469,-76.1444
1993,R1W8,W08,W09,Winston-Salem,36.1028,-80.2605
1993,R1X1,X01,X16,Indianapolis,39.7910,-86.1480
1993,R1X2,X02,X15,Rosemont,41.9908,-87.8739
1993,R1X3,X03,X14,Rosemont,41.9908,-87.8739
1993,R1X4,X04,X13,Indianapolis,39.7910,-86.1480
1993,R1X5,X05,X12,Indianapolis,39.7910,-86.1480
1993,R1X6,X06,X11,Rosemont,41.9908,-87.8739
1993,R1X7,X07,X10,Rosemont,41.9908,-87.8739
1993,R1X8,X08,X09,Indianapolis,39.7910,-86.1480
1993,R1Y1,Y01,Y16,Nashville,36.1667,-86.7833
1993,R1Y2,Y02,Y15,Orlando,28.4158,-81.2989
1993,R1Y3,Y03,Y14,Orlando,28.4158,-81.2989
1993,R1Y4,Y04,Y13,Nashville,36.1667,-86.7833
1993,R1Y5,Y05,Y12,Nashville,36.1667,-86.7833
1993,R1Y6,Y06,Y11,Orlando,28.4158,-81.2989
1993,R1Y7,Y07,Y10,Orlando,28.4158,-81.2989
1993,R1Y8,Y08,Y09,Nashville,36.1667,-86.7833
1993,R1Z1,Z01,Z16,Tucson,32.2217,-110.9264
1993,R1Z2,Z02,Z15,Salt Lake City,40.7500,-111.8833
1993,R1Z3,Z03,Z14,Salt Lake City,40.7500,-111.8833
1993,R1Z4,Z04,Z13,Tucson,32.2217,-110.9264
1993,R1Z5,Z05,Z12,Tucson,32.2217,-110.9264
1993,R1Z6,Z06,Z11,Salt Lake City,40.7500,-111.8833
1993,R1Z7,Z07,Z10,Salt Lake City,40.7500,-111.8833
1993,R1Z8,Z08,Z09,Tucson,32.2217,-110.9264
1993,R2W1,R1W1,R1W8,Winston-Salem,36.1028,-80.2605
1993,R2W2,R1W2,R1W7,Syracuse,43.0469,-76.1444
1993,R2W3,R1W3,R1W6,Syracuse,43.0469,-76.1444
1993,R2W4,R1W4,R1W5,Winston-Salem,36.1028,-80.2605
1993,R2X1,R1X1,R1X8,Indianapolis,39.7910,-86.1480
1993,R2X2,R1X2,R1X7,Rosemont,41.9908,-87.8739
1993,R2X3,R1X3,R1X6,Rosemont,41.9908,-87.8739
1993,R2X4,R1X4,R1X5,Indianapolis,39.7910,-86.1480
1993,R2Y1,R1Y1,R1Y8,Nashville,36.1667,-86.7833
1993,R2Y2,R1Y2,R1Y7,Orlando,28.4158,-81.2989
1993,R2Y3,R1Y3,R1Y6,Orlando,28.4158,-81.2989
1993,R2Y4,R1Y4,R1Y5,Nashville,36.1667,-86.7833
1993,R2Z1,R1Z1,R1Z8,Tucson,32.2217,-110.9264
1993,R2Z2,R1Z2,R1Z7,Salt Lake City,40.7500,-111.8833
1993,R2Z3,R1Z3,R1Z6,Salt Lake City,40.7500,-111.8833
1993,R2Z4,R1Z4,R1Z5,Tucson,32.2217,-110.9264
1993,R3W1,R2W1,R2W4,East Rutherford,40.8171,-74.0850
1993,R3W2,R2W2,R2W3,East Rutherford,40.8171,-74.0850
1993,R3X1,R2X1,R2X4,St. Louis,38.6272,-90.1978
1993,R3X2,R2X2,R2X3,St. Louis,38.6272,-90.1978
1993,R3Y1,R2Y1,R2Y4,Charlotte,35.2269,-80.8433
1993,R3Y2,R2Y2,R2Y3,Charlotte,35.2269,-80.8433
1993,R3Z1,R2Z1,R2Z4,Seattle,47.6097,-122.3331
1993,R3Z2,R2Z2,R2Z3,Seattle,47.6097,-122.3331
1993,R4W1,R3W1,R3W2,East Rutherford,40.8171,-74.0850
1993,R4X1,R3X1,R3X2,St. Louis,38.6272,-90.1978
1993,R4Y1,R3Y1,R3Y2,Charlotte,35.2269,-80.8433
1993,R4Z1,R3Z1,R3Z2,Seattle,47.6097,-122.3331
1993,R5WX,R4W1,R4X1,New Orleans,29.9667,-90.0500
1993,R5YZ,R4Y1,R4Z1,New Orleans,29.9667,-90.0500
1993,R6CH,R5WX,R5YZ,New Orleans,29.9667,-90.0500
1994,R1W1,W01,W16,Landover,38.9333,-76.9000
1994,R1W2,W02,W15,Uniondale,40.7031,-73.5911
1994,R1W3,W03,W14,Uniondale,40.7031,-73.5911
1994,R1W4,W04,W13,Landover,38.9333,-76.9000
1994,R1W5,W05,W12,Landover,38.9333,-76.9000
1994,R1W6,W06,W11,Uniondale,40.7031,-73.5911
1994,R1W7,W07,W10,Uniondale,40.7031,-73.5911
1994,R1W8,W08,W09,Landover,38.9333,-76.9000
1994,R1X1,X01,X16,Oklahoma City,35.4822,-97.5350
1994,R1X2,X02,X15,Wichita,37.6889,-97.3361
1994,R1X3,X03,X14,Wichita,37.6889,-97.3361
1994,R1X4,X04,X13,Oklahoma City,35.4822,-97.5350
1994,R1X5,X05,X12,Oklahoma City,35.4822,-97.5350
1994,R1X6,X06,X11,Wichita,37.6889,-97.3361
1994,R1X7,X07,X10,Wichita,37.6889,-97.3361
1994,R1X8,X08,X09,Oklahoma City,35.4822,-97.5350
1994,R1Y1,Y01,Y16,Lexington,38.0297,-84.4947
1994,R1Y2,Y02,Y15,St. Petersburg,27.7731,-82.6400
1994,R1Y3,Y03,Y14,St. Petersburg,27.7731,-82.6400
1994,R1Y4,Y04,Y13,Lexington,38.0297,-84.4947
1994,R1Y5,Y05,Y12,Lexington,38.0297,-84.4947
1994,R1Y6,Y06,Y11,St. Petersburg,27.7731,-82.6400
1994,R1Y7,Y07,Y10,St. Petersburg,27.7731,-82.6400
1994,R1Y8,Y08,Y09,Lexington,38.0297,-84.4947
1994,R1Z1,Z01,Z16,Ogden,41.2278,-111.9611
1994,R1Z2,Z02,Z15,Sacramento,38.5556,-121.4689
1994,R1Z3,Z03,Z14,Sacramento,38.5556,-121.4689
1994,R1Z4,Z04,Z13,Ogden,41.2278,-111.9611
1994,R1Z5,Z05,Z12,Ogden,41.2278,-111.9611
1994,R1Z6,Z06,Z11,Sacramento,38.5556,-121.4689
1994,R1Z7,Z07,Z10,Sacramento,38.5556,-121.4689
1994,R1Z8,Z08,Z09,Ogden,41.2278,-111.9611
1994,R2W1,R1W1,R1W8,Landover,38.9333,-76.9000
1994,R2W2,R1W2,R1W7,Uniondale,40.7031,-73.5911
1994,R2W3,R1W3,R1W6,Uniondale,40.7031,-73.5911
1994,R2W4,R1W4,R1W5,Landover,38.9333,-76.9000
1994,R2X1,R1X1,R1X8,Oklahoma City,35.4822,-97.5350
1994,R2X2,R1X2,R1X7,Wichita,37.6889,-97.3361
1994,R2X3,R1X3,R1X6,Wichita,37.6889,-97.3361
1994,R2X4,R1X4,R1X5,Oklahoma City,35.4822,-97.5350
1994,R2Y1,R1Y1,R1Y8,Lexington,38.0297,-84.4947
1994,R2Y2,R1Y2,R1Y7,St. Petersburg,27.7731,-82.6400
1994,R2Y3,R1Y3,R1Y6,St. Petersburg,27.7731,-82.6400
1994,R2Y4,R1Y4,R1Y5,Lexington,38.0297,-84.4947
1994,R2Z1,R1Z1,R1Z8,Ogden,41.2278,-111.9611
1994,R2Z2,R1Z2,R1Z7,Sacramento,38.5556,-121.4689
1994,R2Z3,R1Z3,R1Z6,Sacramento,38.5556,-121.4689
1994,R2Z4,R1Z4,R1Z5,Ogden,41.2278,-111.9611
1994,R3W1,R2W1,R2W4,Miami,25.7877,-80.2241
1994,R3W2,R2W2,R2W3,Miami,25.7877,-80.2241
1994,R3X1,R2X1,R2X4,Dallas,32.7767,-96.7970
1994,R3X2,R2X2,R2X3,Dallas,32.7767,-96.7970
1994,R3Y1,R2Y1,R2Y4,Knoxville,35.9728,-83.9422
1994,R3Y2,R2Y2,R2Y3,Knoxville,35.9728,-83.9422
1994,R3Z1,R2Z1,R2Z4,Los Angeles,34.0500,-118.2500
1994,R3Z2,R2Z2,R2Z3,Los Angeles,34.0500,-118.2500
1994,R4W1,R3W1,R3W2,Miami,25.7877,-80.2241
1994,R4X1,R3X1,R3X2,Dallas,32.7767,-96.7970
1994,R4Y1,R3Y1,R3Y2,Knoxville,35.9728,-83.9422
1994,R4Z1,R3Z1,R3Z2,Los Angeles,34.0500,-118.2500
1994,R5WX,R4W1,R4X1,Charlotte,35.2269,-80.8433
1994,R5YZ,R4Y1,R4Z1,Charlotte,35.2269,-80.8433
1994,R6CH,R5WX,R5YZ,Charlotte,35.2269,-80.8433
1995,R1W1,W01,W16,Baltimore,39.2833,-76.6167
1995,R1W2,W02,W15,Albany,42.6525,-73.7572
1995,R1W3,W03,W14,Albany,42.6525,-73.7572
1995,R1W4,W04,W13,Baltimore,39.2833,-76.6167
1995,R1W5,W05,W12,Baltimore,39.2833,-76.6167
1995,R1W6,W06,W11,Albany,42.6525,-73.7572
1995,R1W7,W07,W10,Albany,42.6525,-73.7572
1995,R1W8,W08,W09,Baltimore,39.2833,-76.6167
1995,R1X1,X01,X16,Dayton,39.7594,-84.1917
1995,R1X2,X02,X15,Austin,30.2500,-97.75
1995,R1X3,X03,X14,Austin,30.2500,-97.75
1995,R1X4,X04,X13,Dayton,39.7594,-84.1917
1995,R1X5,X05,X12,Dayton,39.7594,-84.1917
1995,R1X6,X06,X11,Austin,30.2500,-97.75
1995,R1X7,X07,X10,Austin,30.2500,-97.75
1995,R1X8,X08,X09,Dayton,39.7594,-84.1917
1995,R1Y1,Y01,Y16,Memphis,35.1174,-89.9711
1995,R1Y2,Y02,Y15,Tallahassee,30.4550,-84.2533
1995,R1Y3,Y03,Y14,Tallahassee,30.4550,-84.2533
1995,R1Y4,Y04,Y13,Memphis,35.1174,-89.9711
1995,R1Y5,Y05,Y12,Memphis,35.1174,-89.9711
1995,R1Y6,Y06,Y11,Tallahassee,30.4550,-84.2533
1995,R1Y7,Y07,Y10,Tallahassee,30.4550,-84.2533
1995,R1Y8,Y08,Y09,Memphis,35.1174,-89.9711
1995,R1Z1,Z01,Z16,Boise,43.6167,-116.2
1995,R1Z2,Z02,Z15,Salt Lake City,40.7500,-111.8833
1995,R1Z3,Z03,Z14,Salt Lake City,40.7500,-111.8833
1995,R1Z4,Z04,Z13,Boise,43.6167,-116.2
1995,R1Z5,Z05,Z12,Boise,43.6167,-116.2
1995,R1Z6,Z06,Z11,Salt Lake City,40.7500,-111.8833
1995,R1Z7,Z07,Z10,Salt Lake City,40.7500,-111.8833
1995,R1Z8,Z08,Z09,Boise,43.6167,-116.2
1995,R2W1,R1W1,R1W8,Baltimore,39.2833,-76.6167
1995,R2W2,R1W2,R1W7,Albany,42.6525,-73.7572
1995,R2W3,R1W3,R1W6,Albany,42.6525,-73.7572
1995,R2W4,R1W4,R1W5,Baltimore,39.2833,-76.6167
1995,R2X1,R1X1,R1X8,Dayton,39.7594,-84.1917
1995,R2X2,R1X2,R1X7,Austin,30.2500,-97.75
1995,R2X3,R1X3,R1X6,Austin,30.2500,-97.75
1995,R2X4,R1X4,R1X5,Dayton,39.7594,-84.1917
1995,R2Y1,R1Y1,R1Y8,Memphis,35.1174,-89.9711
1995,R2Y2,R1Y2,R1Y7,Tallahassee,30.4550,-84.2533
1995,R2Y3,R1Y3,R1Y6,Tallahassee,30.4550,-84.2533
1995,R2Y4,R1Y4,R1Y5,Memphis,35.1174,-89.9711
1995,R2Z1,R1Z1,R1Z8,Boise,43.6167,-116.2
1995,R2Z2,R1Z2,R1Z7,Salt Lake City,40.7500,-111.8833
1995,R2Z3,R1Z3,R1Z6,Salt Lake City,40.7500,-111.8833
1995,R2Z4,R1Z4,R1Z5,Boise,43.6167,-116.2
1995,R3W1,R2W1,R2W4,East Rutherford,40.8171,-74.0850
1995,R3W2,R2W2,R2W3,East Rutherford,40.8171,-74.0850
1995,R3X1,R2X1,R2X4,Kansas City,39.0997,-94.5783
1995,R3X2,R2X2,R2X3,Kansas City,39.0997,-94.5783
1995,R3Y1,R2Y1,R2Y4,Birmingham,33.525,-86.813
1995,R3Y2,R2Y2,R2Y3,Birmingham,33.525,-86.813
1995,R3Z1,R2Z1,R2Z4,Oakland,37.8044,-122.2708
1995,R3Z2,R2Z2,R2Z3,Oakland,37.8044,-122.2708
1995,R4W1,R3W1,R3W2,East Rutherford,40.8171,-74.0850
1995,R4X1,R3X1,R3X2,Kansas City,39.0997,-94.5783
1995,R4Y1,R3Y1,R3Y2,Birmingham,33.525,-86.813
1995,R4Z1,R3Z1,R3Z2,Oakland,37.8044,-122.2708
1995,R5WX,R4W1,R4X1,Seattle,47.6097,-122.3331
1995,R5YZ,R4Y1,R4Z1,Seattle,47.6097,-122.3331
1995,R6CH,R5WX,R5YZ,Seattle,47.6097,-122.3331
1996,R1W1,W01,W16,Providence,41.8236,-71.4222
1996,R1W2,W02,W15,Richmond,37.5333,-77.4667
1996,R1W3,W03,W14,Richmond,37.5333,-77.4667
1996,R1W4,W04,W13,Providence,41.8236,-71.4222
1996,R1W5,W05,W12,Providence,41.8236,-71.4222
1996,R1W6,W06,W11,Richmond,37.5333,-77.4667
1996,R1W7,W07,W10,Richmond,37.5333,-77.4667
1996,R1W8,W08,W09,Providence,41.8236,-71.4222
1996,R1X1,X01,X16,Dallas,32.7767,-96.7970
1996,R1X2,X02,X15,Milwaukee,43.0500,-87.9500
1996,R1X3,X03,X14,Milwaukee,43.0500,-87.9500
1996,R1X4,X04,X13,Dallas,32.7767,-96.7970
1996,R1X5,X05,X12,Dallas,32.7767,-96.7970
1996,R1X6,X06,X11,Milwaukee,43.0500,-87.9500
1996,R1X7,X07,X10,Milwaukee,43.0500,-87.9500
1996,R1X8,X08,X09,Dallas,32.7767,-96.7970
1996,R1Y1,Y01,Y16,Indianapolis,39.7910,-86.1480
1996,R1Y2,Y02,Y15,Orlando,28.4158,-81.2989
1996,R1Y3,Y03,Y14,Orlando,28.4158,-81.2989
1996,R1Y4,Y04,Y13,Indianapolis,39.7910,-86.1480
1996,R1Y5,Y05,Y12,Indianapolis,39.7910,-86.1480
1996,R1Y6,Y06,Y11,Orlando,28.4158,-81.2989
1996,R1Y7,Y07,Y10,Orlando,28.4158,-81.2989
1996,R1Y8,Y08,Y09,Indianapolis,39.7910,-86.1480
1996,R1Z1,Z01,Z16,Albuquerque,35.1107,-106.6100
1996,R1Z2,Z02,Z15,Tempe,33.4294,-111.9431
1996,R1Z3,Z03,Z14,Tempe,33.4294,-111.9431
1996,R1Z4,Z04,Z13,Albuquerque,35.1107,-106.6100
1996,R1Z5,Z05,Z12,Albuquerque,35.1107,-106.6100
1996,R1Z6,Z06,Z11,Tempe,33.4294,-111.9431
1996,R1Z7,Z07,Z10,Tempe,33.4294,-111.9431
1996,R1Z8,Z08,Z09,Albuquerque,35.1107,-106.6100
1996,R2W1,R1W1,R1W8,Providence,41.8236,-71.4222
1996,R2W2,R1W2,R1W7,Richmond,37.5333,-77.4667
1996,R2W3,R1W3,R1W6,Richmond,37.5333,-77.4667
1996,R2W4,R1W4,R1W5,Providence,41.8236,-71.4222
1996,R2X1,R1X1,R1X8,Dallas,32.7767,-96.7970
1996,R2X2,R1X2,R1X7,Milwaukee,43.0500,-87.9500
1996,R2X3,R1X3,R1X6,Milwaukee,43.0500,-87.9500
1996,R2X4,R1X4,R1X5,Dallas,32.7767,-96.7970
1996,R2Y1,R1Y1,R1Y8,Indianapolis,39.7910,-86.1480
1996,R2Y2,R1Y2,R1Y7,Orlando,28.4158,-81.2989
1996,R2Y3,R1Y3,R1Y6,Orlando,28.4158,-81.2989
1996,R2Y4,R1Y4,R1Y5,Indianapolis,39.7910,-86.1480
1996,R2Z1,R1Z1,R1Z8,Albuquerque,35.1107,-106.6100
1996,R2Z2,R1Z2,R1Z7,Tempe,33.4294,-111.9431
1996,R2Z3,R1Z3,R1Z6,Tempe,33.4294,-111.9431
1996,R2Z4,R1Z4,R1Z5,Albuquerque,35.1107,-106.6100
1996,R3W1,R2W1,R2W4,Atlanta,33.7550,-84.39
1996,R3W2,R2W2,R2W3,Atlanta,33.7550,-84.39
1996,R3X1,R2X1,R2X4,Minneapolis,44.9778,-93.2650
1996,R3X2,R2X2,R2X3,Minneapolis,44.9778,-93.2650
1996,R3Y1,R2Y1,R2Y4,Lexington,38.0297,-84.4947
1996,R3Y2,R2Y2,R2Y3,Lexington,38.0297,-84.4947
1996,R3Z1,R2Z1,R2Z4,Denver,39.7392,-104.9903
1996,R3Z2,R2Z2,R2Z3,Denver,39.7392,-104.9903
1996,R4W1,R3W1,R3W2,Atlanta,33.7550,-84.39
1996,R4X1,R3X1,R3X2,Minneapolis,44.9778,-93.2650
1996,R4Y1,R3Y1,R3Y2,Lexington,38.0297,-84.4947
1996,R4Z1,R3Z1,R3Z2,Denver,39.7392,-104.9903
1996,R5WX,R4W1,R4X1,East Rutherford,40.8171,-74.0850
1996,R5YZ,R4Y1,R4Z1,East Rutherford,40.8171,-74.0850
1996,R6CH,R5WX,R5YZ,East Rutherford,40.8171,-74.0850
1997,R1W1,W01,W16,Winston-Salem,36.1028,-80.2605
1997,R1W2,W02,W15,Pittsburgh,40.4417,-80.0000
1997,R1W3,W03,W14,Pittsburgh,40.4417,-80.0000
1997,R1W4,W04,W13,Winston-Salem,36.1028,-80.2605
1997,R1W5,W05,W12,Winston-Salem,36.1028,-80.2605
1997,R1W6,W06,W11,Pittsburgh,40.4417,-80.0000
1997,R1W7,W07,W10,Pittsburgh,40.4417,-80.0000
1997,R1W8,W08,W09,Winston-Salem,36.1028,-80.2605
1997,R1X1,X01,X16,Kansas City,39.0997,-94.5783
1997,R1X2,X02,X15,Auburn Hills,42.6875,-83.2342
1997,R1X3,X03,X14,Auburn Hills,42.6875,-83.2342
1997,R1X4,X04,X13,Kansas City,39.0997,-94.5783
1997,R1X5,X05,X12,Kansas City,39.0997,-94.5783
1997,R1X6,X06,X11,Auburn Hills,42.6875,-83.2342
1997,R1X7,X07,X10,Auburn Hills,42.6875,-83.2342
1997,R1X8,X08,X09,Kansas City,39.0997,-94.5783
1997,R1Y1,Y01,Y16,Memphis,35.1174,-89.9711
1997,R1Y2,Y02,Y15,Charlotte,35.2269,-80.8433
1997,R1Y3,Y03,Y14,Charlotte,35.2269,-80.8433
1997,R1Y4,Y04,Y13,Memphis,35.1174,-89.9711
1997,R1Y5,Y05,Y12,Memphis,35.1174,-89.9711
1997,R1Y6,Y06,Y11,Charlotte,35.2269,-80.8433
1997,R1Y7,Y07,Y10,Charlotte,35.2269,-80.8433
1997,R1Y8,Y08,Y09,Memphis,35.1174,-89.9711
1997,R1Z1,Z01,Z16,Salt Lake City,40.7500,-111.8833
1997,R1Z2,Z02,Z15,Tucson,32.2217,-110.9264
1997,R1Z3,Z03,Z14,Tucson,32.2217,-110.9264
1997,R1Z4,Z04,Z13,Salt Lake City,40.7500,-111.8833
1997,R1Z5,Z05,Z12,Salt Lake City,40.7500,-111.8833
1997,R1Z6,Z06,Z11,Tucson,32.2217,-110.9264
1997,R1Z7,Z07,Z10,Tucson,32.2217,-110.9264
1997,R1Z8,Z08,Z09,Salt Lake City,40.7500,-111.8833
1997,R2W1,R1W1,R1W8,Winston-Salem,36.1028,-80.2605
1997,R2W2,R1W2,R1W7,Pittsburgh,40.4417,-80.0000
1997,R2W3,R1W3,R1W6,Pittsburgh,40.4417,-80.0000
1997,R2W4,R1W4,R1W5,Winston-Salem,36.1028,-80.2605
1997,R2X1,R1X1,R1X8,Kansas City,39.0997,-94.5783
1997,R2X2,R1X2,R1X7,Auburn Hills,42.6875,-83.2342
1997,R2X3,R1X3,R1X6,Auburn Hills,42.6875,-83.2342
1997,R2X4,R1X4,R1X5,Kansas City,39.0997,-94.5783
1997,R2Y1,R1Y1,R1Y8,Memphis,35.1174,-89.9711
1997,R2Y2,R1Y2,R1Y7,Charlotte,35.2269,-80.8433
1997,R2Y3,R1Y3,R1Y6,Charlotte,35.2269,-80.8433
1997,R2Y4,R1Y4,R1Y5,Memphis,35.1174,-89.9711
1997,R2Z1,R1Z1,R1Z8,Salt Lake City,40.7500,-111.8833
1997,R2Z2,R1Z2,R1Z7,Tucson,32.2217,-110.9264
1997,R2Z3,R1Z3,R1Z6,Tucson,32.2217,-110.9264
1997,R2Z4,R1Z4,R1Z5,Salt Lake City,40.7500,-111.8833
1997,R3W1,R2W1,R2W4,Syracuse,43.0469,-76.1444
1997,R3W2,R2W2,R2W3,Syracuse,43.0469,-76.1444
1997,R3X1,R2X1,R2X4,San Antonio,29.41667,-98.5000
1997,R3X2,R2X2,R2X3,San Antonio,29.41667,-98.5000
1997,R3Y1,R2Y1,R2Y4,Birmingham,33.525,-86.813
1997,R3Y2,R2Y2,R2Y3,Birmingham,33.525,-86.813
1997,R3Z1,R2Z1,R2Z4,San Jose,37.3382,-121.8863
1997,R3Z2,R2Z2,R2Z3,San Jose,37.3382,-121.8863
1997,R4W1,R3W1,R3W2,Syracuse,43.0469,-76.1444
1997,R4X1,R3X1,R3X2,San Antonio,29.41667,-98.5000
1997,R4Y1,R3Y1,R3Y2,Birmingham,33.525,-86.813
1997,R4Z1,R3Z1,R3Z2,San Jose,37.3382,-121.8863
1997,R5WX,R4W1,R4X1,Indianapolis,39.7910,-86.1480
1997,R5YZ,R4Y1,R4Z1,Indianapolis,39.7910,-86.1480
1997,R6CH,R5WX,R5YZ,Indianapolis,39.7910,-86.1480
1998,R1W1,W01,W16,Hartford,41.7627,-72.6743
1998,R1W2,W02,W15,Washington,38.8951,-77.0367
1998,R1W3,W03,W14,Washington,38.8951,-77.0367
1998,R1W4,W04,W13,Hartford,41.7627,-72.6743
1998,R1W5,W05,W12,Hartford,41.7627,-72.6743
1998,R1W6,W06,W11,Washington,38.8951,-77.0367
1998,R1W7,W07,W10,Washington,38.8951,-77.0367
1998,R1W8,W08,W09,Hartford,41.7627,-72.6743
1998,R1X1,X01,X16,Oklahoma City,35.4822,-97.5350
1998,R1X2,X02,X15,Chicago,41.8369,-87.6847
1998,R1X3,X03,X14,Chicago,41.8369,-87.6847
1998,R1X4,X04,X13,Oklahoma City,35.4822,-97.5350
1998,R1X5,X05,X12,Oklahoma City,35.4822,-97.5350
1998,R1X6,X06,X11,Chicago,41.8369,-87.6847
1998,R1X7,X07,X10,Chicago,41.8369,-87.6847
1998,R1X8,X08,X09,Oklahoma City,35.4822,-97.5350
1998,R1Y1,Y01,Y16,Lexington,38.0297,-84.4947
1998,R1Y2,Y02,Y15,Atlanta,33.7550,-84.39
1998,R1Y3,Y03,Y14,Atlanta,33.7550,-84.39
1998,R1Y4,Y04,Y13,Lexington,38.0297,-84.4947
1998,R1Y5,Y05,Y12,Lexington,38.0297,-84.4947
1998,R1Y6,Y06,Y11,Atlanta,33.7550,-84.39
1998,R1Y7,Y07,Y10,Atlanta,33.7550,-84.39
1998,R1Y8,Y08,Y09,Lexington,38.0297,-84.4947
1998,R1Z1,Z01,Z16,Sacramento,38.5556,-121.4689
1998,R1Z2,Z02,Z15,Boise,43.6167,-116.2
1998,R1Z3,Z03,Z14,Boise,43.6167,-116.2
1998,R1Z4,Z04,Z13,Sacramento,38.5556,-121.4689
1998,R1Z5,Z05,Z12,Sacramento,38.5556,-121.4689
1998,R1Z6,Z06,Z11,Boise,43.6167,-116.2
1998,R1Z7,Z07,Z10,Boise,43.6167,-116.2
1998,R1Z8,Z08,Z09,Sacramento,38.5556,-121.4689
1998,R2W1,R1W1,R1W8,Hartford,41.7627,-72.6743
1998,R2W2,R1W2,R1W7,Washington,38.8951,-77.0367
1998,R2W3,R1W3,R1W6,Washington,38.8951,-77.0367
1998,R2W4,R1W4,R1W5,Hartford,41.7627,-72.6743
1998,R2X1,R1X1,R1X8,Oklahoma City,35.4822,-97.5350
1998,R2X2,R1X2,R1X7,Chicago,41.8369,-87.6847
1998,R2X3,R1X3,R1X6,Chicago,41.8369,-87.6847
1998,R2X4,R1X4,R1X5,Oklahoma City,35.4822,-97.5350
1998,R2Y1,R1Y1,R1Y8,Lexington,38.0297,-84.4947
1998,R2Y2,R1Y2,R1Y7,Atlanta,33.7550,-84.39
1998,R2Y3,R1Y3,R1Y6,Atlanta,33.7550,-84.39
1998,R2Y4,R1Y4,R1Y5,Lexington,38.0297,-84.4947
1998,R2Z1,R1Z1,R1Z8,Sacramento,38.5556,-121.4689
1998,R2Z2,R1Z2,R1Z7,Boise,43.6167,-116.2
1998,R2Z3,R1Z3,R1Z6,Boise,43.6167,-116.2
1998,R2Z4,R1Z4,R1Z5,Sacramento,38.5556,-121.4689
1998,R3W1,R2W1,R2W4,Greensboro,36.0800,-79.8194
1998,R3W2,R2W2,R2W3,Greensboro,36.0800,-79.8194
1998,R3X1,R2X1,R2X4,St. Louis,38.6272,-90.1978
1998,R3X2,R2X2,R2X3,St. Louis,38.6272,-90.1978
1998,R3Y1,R2Y1,R2Y4,St. Petersburg,27.7731,-82.6400
1998,R3Y2,R2Y2,R2Y3,St. Petersburg,27.7731,-82.6400
1998,R3Z1,R2Z1,R2Z4,Anaheim,33.8361,-117.8897
1998,R3Z2,R2Z2,R2Z3,Anaheim,33.8361,-117.8897
1998,R4W1,R3W1,R3W2,Greensboro,36.0800,-79.8194
1998,R4X1,R3X1,R3X2,St. Louis,38.6272,-90.1978
1998,R4Y1,R3Y1,R3Y2,St. Petersburg,27.7731,-82.6400
1998,R4Z1,R3Z1,R3Z2,Anaheim,33.8361,-117.8897
1998,R5WX,R4W1,R4X1,San Antonio,29.41667,-98.5000
1998,R5YZ,R4Y1,R4Z1,San Antonio,29.41667,-98.5000
1998,R6CH,R5WX,R5YZ,San Antonio,29.41667,-98.5000
1999,R1W1,W01,W16,Charlotte,35.2269,-80.8433
1999,R1W2,W02,W15,Boston,42.3601,-71.0589
1999,R1W3,W03,W14,Boston,42.3601,-71.0589
1999,R1W4,W04,W13,Charlotte,35.2269,-80.8433
1999,R1W5,W05,W12,Charlotte,35.2269,-80.8433
1999,R1W6,W06,W11,Boston,42.3601,-71.0589
1999,R1W7,W07,W10,Boston,42.3601,-71.0589
1999,R1W8,W08,W09,Charlotte,35.2269,-80.8433
1999,R1X1,X01,X16,Milwaukee,43.0500,-87.9500
1999,R1X2,X02,X15,New Orleans,29.9667,-90.0500
1999,R1X3,X03,X14,New Orleans,29.9667,-90.0500
1999,R1X4,X04,X13,Milwaukee,43.0500,-87.9500
1999,R1X5,X05,X12,Milwaukee,43.0500,-87.9500
1999,R1X6,X06,X11,New Orleans,29.9667,-90.0500
1999,R1X7,X07,X10,New Orleans,29.9667,-90.0500
1999,R1X8,X08,X09,Milwaukee,43.0500,-87.9500
1999,R1Y1,Y01,Y16,Indianapolis,39.7910,-86.1480
1999,R1Y2,Y02,Y15,Orlando,28.4158,-81.2989
1999,R1Y3,Y03,Y14,Orlando,28.4158,-81.2989
1999,R1Y4,Y04,Y13,Indianapolis,39.7910,-86.1480
1999,R1Y5,Y05,Y12,Indianapolis,39.7910,-86.1480
1999,R1Y6,Y06,Y11,Orlando,28.4158,-81.2989
1999,R1Y7,Y07,Y10,Orlando,28.4158,-81.2989
1999,R1Y8,Y08,Y09,Indianapolis,39.7910,-86.1480
1999,R1Z1,Z01,Z16,Denver,39.7392,-104.9903
1999,R1Z2,Z02,Z15,Seattle,47.6097,-122.3331
1999,R1Z3,Z03,Z14,Seattle,47.6097,-122.3331
1999,R1Z4,Z04,Z13,Denver,39.7392,-104.9903
1999,R1Z5,Z05,Z12,Denver,39.7392,-104.9903
1999,R1Z6,Z06,Z11,Seattle,47.6097,-122.3331
1999,R1Z7,Z07,Z10,Seattle,47.6097,-122.3331
1999,R1Z8,Z08,Z09,Denver,39.7392,-104.9903
1999,R2W1,R1W1,R1W8,Charlotte,35.2269,-80.8433
1999,R2W2,R1W2,R1W7,Boston,42.3601,-71.0589
1999,R2W3,R1W3,R1W6,Boston,42.3601,-71.0589
1999,R2W4,R1W4,R1W5,Charlotte,35.2269,-80.8433
1999,R2X1,R1X1,R1X8,Milwaukee,43.0500,-87.9500
1999,R2X2,R1X2,R1X7,New Orleans,29.9667,-90.0500
1999,R2X3,R1X3,R1X6,New Orleans,29.9667,-90.0500
1999,R2X4,R1X4,R1X5,Milwaukee,43.0500,-87.9500
1999,R2Y1,R1Y1,R1Y8,Indianapolis,39.7910,-86.1480
1999,R2Y2,R1Y2,R1Y7,Orlando,28.4158,-81.2989
1999,R2Y3,R1Y3,R1Y6,Orlando,28.4158,-81.2989
1999,R2Y4,R1Y4,R1Y5,Indianapolis,39.7910,-86.1480
1999,R2Z1,R1Z1,R1Z8,Denver,39.7392,-104.9903
1999,R2Z2,R1Z2,R1Z7,Seattle,47.6097,-122.3331
1999,R2Z3,R1Z3,R1Z6,Seattle,47.6097,-122.3331
1999,R2Z4,R1Z4,R1Z5,Denver,39.7392,-104.9903
1999,R3W1,R2W1,R2W4,East Rutherford,40.8171,-74.0850
1999,R3W2,R2W2,R2W3,East Rutherford,40.8171,-74.0850
1999,R3X1,R2X1,R2X4,St. Louis,38.6272,-90.1978
1999,R3X2,R2X2,R2X3,St. Louis,38.6272,-90.1978
1999,R3Y1,R2Y1,R2Y4,Knoxville,35.9728,-83.9422
1999,R3Y2,R2Y2,R2Y3,Knoxville,35.9728,-83.9422
1999,R3Z1,R2Z1,R2Z4,Phoenix,33.4500,-112.0667
1999,R3Z2,R2Z2,R2Z3,Phoenix,33.4500,-112.0667
1999,R4W1,R3W1,R3W2,East Rutherford,40.8171,-74.0850
1999,R4X1,R3X1,R3X2,St. Louis,38.6272,-90.1978
1999,R4Y1,R3Y1,R3Y2,Knoxville,35.9728,-83.9422
1999,R4Z1,R3Z1,R3Z2,Phoenix,33.4500,-112.0667
1999,R5WX,R4W1,R4X1,St. Petersburg,27.7731,-82.6400
1999,R5YZ,R4Y1,R4Z1,St. Petersburg,27.7731,-82.6400
1999,R6CH,R5WX,R5YZ,St. Petersburg,27.7731,-82.6400
2000,R1W1,W01,W16,Winston-Salem,36.1028,-80.2605
2000,R1W2,W02,W15,Buffalo,42.9047,-78.8494
2000,R1W3,W03,W14,Buffalo,42.9047,-78.8494
2000,R1W4,W04,W13,Winston-Salem,36.1028,-80.2605
2000,R1W5,W05,W12,Winston-Salem,36.1028,-80.2605
2000,R1W6,W06,W11,Buffalo,42.9047,-78.8494
2000,R1W7,W07,W10,Buffalo,42.9047,-78.8494
2000,R1W8,W08,W09,Winston-Salem,36.1028,-80.2605
2000,R1X1,X01,X16,Cleveland,41.4822,-81.6697
2000,R1X2,X02,X15,Minneapolis,44.9778,-93.2650
2000,R1X3,X03,X14,Minneapolis,44.9778,-93.2650
2000,R1X4,X04,X13,Cleveland,41.4822,-81.6697
2000,R1X5,X05,X12,Cleveland,41.4822,-81.6697
2000,R1X6,X06,X11,Minneapolis,44.9778,-93.2650
2000,R1X7,X07,X10,Minneapolis,44.9778,-93.2650
2000,R1X8,X08,X09,Cleveland,41.4822,-81.6697
2000,R1Y1,Y01,Y16,Birmingham,33.525,-86.813
2000,R1Y2,Y02,Y15,Nashville,36.1667,-86.7833
2000,R1Y3,Y03,Y14,Nashville,36.1667,-86.7833
2000,R1Y4,Y04,Y13,Birmingham,33.525,-86.813
2000,R1Y5,Y05,Y12,Birmingham,33.525,-86.813
2000,R1Y6,Y06,Y11,Nashville,36.1667,-86.7833
2000,R1Y7,Y07,Y10,Nashville,36.1667,-86.7833
2000,R1Y8,Y08,Y09,Birmingham,33.525,-86.813
2000,R1Z1,Z01,Z16,Tucson,32.2217,-110.9264
2000,R1Z2,Z02,Z15,Salt Lake City,40.7500,-111.8833
2000,R1Z3,Z03,Z14,Salt Lake City,40.7500,-111.8833
2000,R1Z4,Z04,Z13,Tucson,32.2217,-110.9264
2000,R1Z5,Z05,Z12,Tucson,32.2217,-110.9264
2000,R1Z6,Z06,Z11,Salt Lake City,40.7500,-111.8833
2000,R1Z7,Z07,Z10,Salt Lake City,40.7500,-111.8833
2000,R1Z8,Z08,Z09,Tucson,32.2217,-110.9264
2000,R2W1,R1W1,R1W8,Winston-Salem,36.1028,-80.2605
2000,R2W2,R1W2,R1W7,Buffalo,42.9047,-78.8494
2000,R2W3,R1W3,R1W6,Buffalo,42.9047,-78.8494
2000,R2W4,R1W4,R1W5,Winston-Salem,36.1028,-80.2605
2000,R2X1,R1X1,R1X8,Cleveland,41.4822,-81.6697
2000,R2X2,R1X2,R1X7,Minneapolis,44.9778,-93.2650
2000,R2X3,R1X3,R1X6,Minneapolis,44.9778,-93.2650
2000,R2X4,R1X4,R1X5,Cleveland,41.4822,-81.6697
2000,R2Y1,R1Y1,R1Y8,Birmingham,33.525,-86.813
2000,R2Y2,R1Y2,R1Y7,Nashville,36.1667,-86.7833
2000,R2Y3,R1Y3,R1Y6,Nashville,36.1667,-86.7833
2000,R2Y4,R1Y4,R1Y5,Birmingham,33.525,-86.813
2000,R2Z1,R1Z1,R1Z8,Tucson,32.2217,-110.9264
2000,R2Z2,R1Z2,R1Z7,Salt Lake City,40.7500,-111.8833
2000,R2Z3,R1Z3,R1Z6,Salt Lake City,40.7500,-111.8833
2000,R2Z4,R1Z4,R1Z5,Tucson,32.2217,-110.9264
2000,R3W1,R2W1,R2W4,Syracuse,43.0469,-76.1444
2000,R3W2,R2W2,R2W3,Syracuse,43.0469,-76.1444
2000,R3X1,R2X1,R2X4,Auburn Hills,42.6875,-83.2342
2000,R3X2,R2X2,R2X3,Auburn Hills,42.6875,-83.2342
2000,R3Y1,R2Y1,R2Y4,Austin,30.2500,-97.75
2000,R3Y2,R2Y2,R2Y3,Austin,30.2500,-97.75
2000,R3Z1,R2Z1,R2Z4,Albuquerque,35.1107,-106.6100
2000,R3Z2,R2Z2,R2Z3,Albuquerque,35.1107,-106.6100
2000,R4W1,R3W1,R3W2,Syracuse,43.0469,-76.1444
2000,R4X1,R3X1,R3X2,Auburn Hills,42.6875,-83.2342
2000,R4Y1,R3Y1,R3Y2,Austin,30.2500,-97.75
2000,R4Z1,R3Z1,R3Z2,Albuquerque,35.1107,-106.6100
2000,R5WX,R4W1,R4X1,Indianapolis,39.7910,-86.1480
2000,R5YZ,R4Y1,R4Z1,Indianapolis,39.7910,-86.1480
2000,R6CH,R5WX,R5YZ,Indianapolis,39.7910,-86.1480
2001,R1W1,W01,W16,Greensboro,36.0800,-79.8194
2001,R1W2,W02,W15,Uniondale,40.7031,-73.5911
2001,R1W3,W03,W14,Uniondale,40.7031,-73.5911
2001,R1W4,W04,W13,Greensboro,36.0800,-79.8194
2001,R1W5,W05,W12,Greensboro,36.0800,-79.8194
2001,R1W6,W06,W11,Uniondale,40.7031,-73.5911
2001,R1W7,W07,W10,Uniondale,40.7031,-73.5911
2001,R1W8,W08,W09,Greensboro,36.0800,-79.8194
2001,R1X1,X01,X16,Dayton,39.7594,-84.1917
2001,R1X2,X02,X15,Kansas City,39.0997,-94.5783
2001,R1X3,X03,X14,Kansas City,39.0997,-94.5783
2001,R1X4,X04,X13,Dayton,39.7594,-84.1917
2001,R1X5,X05,X12,Dayton,39.7594,-84.1917
2001,R1X6,X06,X11,Kansas City,39.0997,-94.5783
2001,R1X7,X07,X10,Kansas City,39.0997,-94.5783
2001,R1X8,X08,X09,Dayton,39.7594,-84.1917
2001,R1Y1,Y01,Y16,Memphis,35.1174,-89.9711
2001,R1Y2,Y02,Y15,New Orleans,29.9667,-90.0500
2001,R1Y3,Y03,Y14,New Orleans,29.9667,-90.0500
2001,R1Y4,Y04,Y13,Memphis,35.1174,-89.9711
2001,R1Y5,Y05,Y12,Memphis,35.1174,-89.9711
2001,R1Y6,Y06,Y11,New Orleans,29.9667,-90.0500
2001,R1Y7,Y07,Y10,New Orleans,29.9667,-90.0500
2001,R1Y8,Y08,Y09,Memphis,35.1174,-89.9711
2001,R1Z1,Z01,Z16,San Diego,32.7150,-117.1625
2001,R1Z2,Z02,Z15,Boise,43.6167,-116.2
2001,R1Z3,Z03,Z14,Boise,43.6167,-116.2
2001,R1Z4,Z04,Z13,San Diego,32.7150,-117.1625
2001,R1Z5,Z05,Z12,San Diego,32.7150,-117.1625
2001,R1Z6,Z06,Z11,Boise,43.6167,-116.2
2001,R1Z7,Z07,Z10,Boise,43.6167,-116.2
2001,R1Z8,Z08,Z09,San Diego,32.7150,-117.1625
2001,R2W1,R1W1,R1W8,Greensboro,36.0800,-79.8194
2001,R2W2,R1W2,R1W7,Uniondale,40.7031,-73.5911
2001,R2W3,R1W3,R1W6,Uniondale,40.7031,-73.5911
2001,R2W4,R1W4,R1W5,Greensboro,36.0800,-79.8194
2001,R2X1,R1X1,R1X8,Dayton,39.7594,-84.1917
2001,R2X2,R1X2,R1X7,Kansas City,39.0997,-94.5783
2001,R2X3,R1X3,R1X6,Kansas City,39.0997,-94.5783
2001,R2X4,R1X4,R1X5,Dayton,39.7594,-84.1917
2001,R2Y1,R1Y1,R1Y8,Memphis,35.1174,-89.9711
2001,R2Y2,R1Y2,R1Y7,New Orleans,29.9667,-90.0500
2001,R2Y3,R1Y3,R1Y6,New Orleans,29.9667,-90.0500
2001,R2Y4,R1Y4,R1Y5,Memphis,35.1174,-89.9711
2001,R2Z1,R1Z1,R1Z8,San Diego,32.7150,-117.1625
2001,R2Z2,R1Z2,R1Z7,Boise,43.6167,-116.2
2001,R2Z3,R1Z3,R1Z6,Boise,43.6167,-116.2
2001,R2Z4,R1Z4,R1Z5,San Diego,32.7150,-117.1625
2001,R3W1,R2W1,R2W4,Philadelphia,39.9500,-75.1667
2001,R3W2,R2W2,R2W3,Philadelphia,39.9500,-75.1667
2001,R3X1,R2X1,R2X4,San Antonio,29.41667,-98.5000
2001,R3X2,R2X2,R2X3,San Antonio,29.41667,-98.5000
2001,R3Y1,R2Y1,R2Y4,Atlanta,33.7550,-84.39
2001,R3Y2,R2Y2,R2Y3,Atlanta,33.7550,-84.39
2001,R3Z1,R2Z1,R2Z4,Anaheim,33.8361,-117.8897
2001,R3Z2,R2Z2,R2Z3,Anaheim,33.8361,-117.8897
2001,R4W1,R3W1,R3W2,Philadelphia,39.9500,-75.1667
2001,R4X1,R3X1,R3X2,San Antonio,29.41667,-98.5000
2001,R4Y1,R3Y1,R3Y2,Atlanta,33.7550,-84.39
2001,R4Z1,R3Z1,R3Z2,Anaheim,33.8361,-117.8897
2001,R5WX,R4W1,R4X1,Minneapolis,44.9778,-93.2650
2001,R5YZ,R4Y1,R4Z1,Minneapolis,44.9778,-93.2650
2001,R6CH,R5WX,R5YZ,Minneapolis,44.9778,-93.2650
2001,Y16,Y16a,Y16b,Dayton,39.7594,-84.1917
2002,R1W1,W01,W16,Washington,38.8951,-77.0367
2002,R1W2,W02,W15,Washington,38.8951,-77.0367
2002,R1W3,W03,W14,Chicago,41.8369,-87.6847
2002,R1W4,W04,W13,St. Louis,38.6272,-90.1978
2002,R1W5,W05,W12,St. Louis,38.6272,-90.1978
2002,R1W6,W06,W11,Chicago,41.8369,-87.6847
2002,R1W7,W07,W10,Washington,38.8951,-77.0367
2002,R1W8,W08,W09,Washington,38.8951,-77.0367
2002,R1X1,X01,X16,St. Louis,38.6272,-90.1978
2002,R1X2,X02,X15,Sacramento,38.5556,-121.4689
2002,R1X3,X03,X14,Dallas,32.7767,-96.7970
2002,R1X4,X04,X13,Chicago,41.8369,-87.6847
2002,R1X5,X05,X12,Chicago,41.8369,-87.6847
2002,R1X6,X06,X11,Dallas,32.7767,-96.7970
2002,R1X7,X07,X10,Sacramento,38.5556,-121.4689
2002,R1X8,X08,X09,St. Louis,38.6272,-90.1978
2002,R1Y1,Y01,Y16,Greenville,35.6017,-77.3725
2002,R1Y2,Y02,Y15,Greenville,35.6017,-77.3725
2002,R1Y3,Y03,Y14,Pittsburgh,40.4417,-80.0000
2002,R1Y4,Y04,Y13,Sacramento,38.5556,-121.4689
2002,R1Y5,Y05,Y12,Sacramento,38.5556,-121.4689
2002,R1Y6,Y06,Y11,Pittsburgh,40.4417,-80.0000
2002,R1Y7,Y07,Y10,Greenville,35.6017,-77.3725
2002,R1Y8,Y08,Y09,Greenville,35.6017,-77.3725
2002,R1Z1,Z01,Z16,Pittsburgh,40.4417,-80.0000
2002,R1Z2,Z02,Z15,Dallas,32.7767,-96.7970
2002,R1Z3,Z03,Z14,Albuquerque,35.1107,-106.6100
2002,R1Z4,Z04,Z13,Albuquerque,35.1107,-106.6100
2002,R1Z5,Z05,Z12,Albuquerque,35.1107,-106.6100
2002,R1Z6,Z06,Z11,Albuquerque,35.1107,-106.6100
2002,R1Z7,Z07,Z10,Dallas,32.7767,-96.7970
2002,R1Z8,Z08,Z09,Pittsburgh,40.4417,-80.0000
2002,R2W1,R1W1,R1W8,Washington,38.8951,-77.0367
2002,R2W2,R1W2,R1W7,Washington,38.8951,-77.0367
2002,R2W3,R1W3,R1W6,Chicago,41.8369,-87.6847
2002,R2W4,R1W4,R1W5,St. Louis,38.6272,-90.1978
2002,R2X1,R1X1,R1X8,St. Louis,38.6272,-90.1978
2002,R2X2,R1X2,R1X7,Sacramento,38.5556,-121.4689
2002,R2X3,R1X3,R1X6,Dallas,32.7767,-96.7970
2002,R2X4,R1X4,R1X5,Chicago,41.8369,-87.6847
2002,R2Y1,R1Y1,R1Y8,Greenville,35.6017,-77.3725
2002,R2Y2,R1Y2,R1Y7,Greenville,35.6017,-77.3725
2002,R2Y3,R1Y3,R1Y6,Pittsburgh,40.4417,-80.0000
2002,R2Y4,R1Y4,R1Y5,Sacramento,38.5556,-121.4689
2002,R2Z1,R1Z1,R1Z8,Pittsburgh,40.4417,-80.0000
2002,R2Z2,R1Z2,R1Z7,Dallas,32.7767,-96.7970
2002,R2Z3,R1Z3,R1Z6,Albuquerque,35.1107,-106.6100
2002,R2Z4,R1Z4,R1Z5,Albuquerque,35.1107,-106.6100
2002,R3W1,R2W1,R2W4,Syracuse,43.0469,-76.1444
2002,R3W2,R2W2,R2W3,Syracuse,43.0469,-76.1444
2002,R3X1,R2X1,R2X4,Madison,43.0667,-89.4000
2002,R3X2,R2X2,R2X3,Madison,43.0667,-89.4000
2002,R3Y1,R2Y1,R2Y4,Lexington,38.0297,-84.4947
2002,R3Y2,R2Y2,R2Y3,Lexington,38.0297,-84.4947
2002,R3Z1,R2Z1,R2Z4,San Jose,37.3382,-121.8863
2002,R3Z2,R2Z2,R2Z3,San Jose,37.3382,-121.8863
2002,R4W1,R3W1,R3W2,Syracuse,43.0469,-76.1444
2002,R4X1,R3X1,R3X2,Madison,43.0667,-89.4000
2002,R4Y1,R3Y1,R3Y2,Lexington,38.0297,-84.4947
2002,R4Z1,R3Z1,R3Z2,San Jose,37.3382,-121.8863
2002,R5WX,R4W1,R4X1,Atlanta,33.7550,-84.39
2002,R5YZ,R4Y1,R4Z1,Atlanta,33.7550,-84.39
2002,R6CH,R5WX,R5YZ,Atlanta,33.7550,-84.39
2002,W16,W16a,W16b,Dayton,39.7594,-84.1917
2003,R1W1,W01,W16,Oklahoma City,35.4822,-97.5350
2003,R1W2,W02,W15,Tampa,27.9710,-82.4650
2003,R1W3,W03,W14,Boston,42.3601,-71.0589
2003,R1W4,W04,W13,Birmingham,33.525,-86.813
2003,R1W5,W05,W12,Birmingham,33.525,-86.813
2003,R1W6,W06,W11,Boston,42.3601,-71.0589
2003,R1W7,W07,W10,Tampa,27.9710,-82.4650
2003,R1W8,W08,W09,Oklahoma City,35.4822,-97.5350
2003,R1X1,X01,X16,Nashville,36.1667,-86.7833
2003,R1X2,X02,X15,Boston,42.3601,-71.0589
2003,R1X3,X03,X14,Indianapolis,39.7910,-86.1480
2003,R1X4,X04,X13,Spokane,47.6589,-117.4250
2003,R1X5,X05,X12,Spokane,47.6589,-117.4250
2003,R1X6,X06,X11,Indianapolis,39.7910,-86.1480
2003,R1X7,X07,X10,Boston,42.3601,-71.0589
2003,R1X8,X08,X09,Nashville,36.1667,-86.7833
2003,R1Y1,Y01,Y16,Birmingham,33.525,-86.813
2003,R1Y2,Y02,Y15,Tampa,27.9710,-82.4650
2003,R1Y3,Y03,Y14,Nashville,36.1667,-86.7833
2003,R1Y4,Y04,Y13,Spokane,47.6589,-117.4250
2003,R1Y5,Y05,Y12,Spokane,47.6589,-117.4250
2003,R1Y6,Y06,Y11,Nashville,36.1667,-86.7833
2003,R1Y7,Y07,Y10,Tampa,27.9710,-82.4650
2003,R1Y8,Y08,Y09,Birmingham,33.525,-86.813
2003,R1Z1,Z01,Z16,Salt Lake City,40.7500,-111.8833
2003,R1Z2,Z02,Z15,Oklahoma City,35.4822,-97.5350
2003,R1Z3,Z03,Z14,Salt Lake City,40.7500,-111.8833
2003,R1Z4,Z04,Z13,Indianapolis,39.7910,-86.1480
2003,R1Z5,Z05,Z12,Indianapolis,39.7910,-86.1480
2003,R1Z6,Z06,Z11,Salt Lake City,40.7500,-111.8833
2003,R1Z7,Z07,Z10,Oklahoma City,35.4822,-97.5350
2003,R1Z8,Z08,Z09,Salt Lake City,40.7500,-111.8833
2003,R2W1,R1W1,R1W8,Oklahoma City,35.4822,-97.5350
2003,R2W2,R1W2,R1W7,Tampa,27.9710,-82.4650
2003,R2W3,R1W3,R1W6,Boston,42.3601,-71.0589
2003,R2W4,R1W4,R1W5,Birmingham,33.525,-86.813
2003,R2X1,R1X1,R1X8,Nashville,36.1667,-86.7833
2003,R2X2,R1X2,R1X7,Boston,42.3601,-71.0589
2003,R2X3,R1X3,R1X6,Indianapolis,39.7910,-86.1480
2003,R2X4,R1X4,R1X5,Spokane,47.6589,-117.4250
2003,R2Y1,R1Y1,R1Y8,Birmingham,33.525,-86.813
2003,R2Y2,R1Y2,R1Y7,Tampa,27.9710,-82.4650
2003,R2Y3,R1Y3,R1Y6,Nashville,36.1667,-86.7833
2003,R2Y4,R1Y4,R1Y5,Spokane,47.6589,-117.4250
2003,R2Z1,R1Z1,R1Z8,Salt Lake City,40.7500,-111.8833
2003,R2Z2,R1Z2,R1Z7,Oklahoma City,35.4822,-97.5350
2003,R2Z3,R1Z3,R1Z6,Salt Lake City,40.7500,-111.8833
2003,R2Z4,R1Z4,R1Z5,Indianapolis,39.7910,-86.1480
2003,R3W1,R2W1,R2W4,Albany,42.6525,-73.7572
2003,R3W2,R2W2,R2W3,Albany,42.6525,-73.7572
2003,R3X1,R2X1,R2X4,Minneapolis,44.9778,-93.2650
2003,R3X2,R2X2,R2X3,Minneapolis,44.9778,-93.2650
2003,R3Y1,R2Y1,R2Y4,San Antonio,29.41667,-98.5000
2003,R3Y2,R2Y2,R2Y3,San Antonio,29.41667,-98.5000
2003,R3Z1,R2Z1,R2Z4,Anaheim,33.8361,-117.8897
2003,R3Z2,R2Z2,R2Z3,Anaheim,33.8361,-117.8897
2003,R4W1,R3W1,R3W2,Albany,42.6525,-73.7572
2003,R4X1,R3X1,R3X2,Minneapolis,44.9778,-93.2650
2003,R4Y1,R3Y1,R3Y2,San Antonio,29.41667,-98.5000
2003,R4Z1,R3Z1,R3Z2,Anaheim,33.8361,-117.8897
2003,R5WX,R4W1,R4X1,New Orleans,29.9667,-90.0500
2003,R5YZ,R4Y1,R4Z1,New Orleans,29.9667,-90.0500
2003,R6CH,R5WX,R5YZ,New Orleans,29.9667,-90.0500
2003,X16,X16a,X16b,Dayton,39.7594,-84.1917
2004,R1W1,W01,W16,Raleigh,35.7806,-78.6389
2004,R1W2,W02,W15,Orlando,28.4158,-81.2989
2004,R1W3,W03,W14,Denver,39.7392,-104.9903
2004,R1W4,W04,W13,Columbus,39.9833,-82.9833
2004,R1W5,W05,W12,Columbus,39.9833,-82.9833
2004,R1W6,W06,W11,Denver,39.7392,-104.9903
2004,R1W7,W07,W10,Orlando,28.4158,-81.2989
2004,R1W8,W08,W09,Raleigh,35.7806,-78.6389
2004,R1X1,X01,X16,Buffalo,42.9047,-78.8494
2004,R1X2,X02,X15,Kansas City,39.0997,-94.5783
2004,R1X3,X03,X14,Milwaukee,43.0500,-87.9500
2004,R1X4,X04,X13,Raleigh,35.7806,-78.6389
2004,R1X5,X05,X12,Raleigh,35.7806,-78.6389
2004,R1X6,X06,X11,Milwaukee,43.0500,-87.9500
2004,R1X7,X07,X10,Kansas City,39.0997,-94.5783
2004,R1X8,X08,X09,Buffalo,42.9047,-78.8494
2004,R1Y1,Y01,Y16,Seattle,47.6097,-122.3331
2004,R1Y2,Y02,Y15,Buffalo,42.9047,-78.8494
2004,R1Y3,Y03,Y14,Denver,39.7392,-104.9903
2004,R1Y4,Y04,Y13,Denver,39.7392,-104.9903
2004,R1Y5,Y05,Y12,Denver,39.7392,-104.9903
2004,R1Y6,Y06,Y11,Denver,39.7392,-104.9903
2004,R1Y7,Y07,Y10,Buffalo,42.9047,-78.8494
2004,R1Y8,Y08,Y09,Seattle,47.6097,-122.3331
2004,R1Z1,Z01,Z16,Columbus,39.9833,-82.9833
2004,R1Z2,Z02,Z15,Seattle,47.6097,-122.3331
2004,R1Z3,Z03,Z14,Milwaukee,43.0500,-87.9500
2004,R1Z4,Z04,Z13,Kansas City,39.0997,-94.5783
2004,R1Z5,Z05,Z12,Kansas City,39.0997,-94.5783
2004,R1Z6,Z06,Z11,Milwaukee,43.0500,-87.9500
2004,R1Z7,Z07,Z10,Seattle,47.6097,-122.3331
2004,R1Z8,Z08,Z09,Columbus,39.9833,-82.9833
2004,R2W1,R1W1,R1W8,Raleigh,35.7806,-78.6389
2004,R2W2,R1W2,R1W7,Orlando,28.4158,-81.2989
2004,R2W3,R1W3,R1W6,Denver,39.7392,-104.9903
2004,R2W4,R1W4,R1W5,Columbus,39.9833,-82.9833
2004,R2X1,R1X1,R1X8,Buffalo,42.9047,-78.8494
2004,R2X2,R1X2,R1X7,Kansas City,39.0997,-94.5783
2004,R2X3,R1X3,R1X6,Milwaukee,43.0500,-87.9500
2004,R2X4,R1X4,R1X5,Raleigh,35.7806,-78.6389
2004,R2Y1,R1Y1,R1Y8,Seattle,47.6097,-122.3331
2004,R2Y2,R1Y2,R1Y7,Buffalo,42.9047,-78.8494
2004,R2Y3,R1Y3,R1Y6,Denver,39.7392,-104.9903
2004,R2Y4,R1Y4,R1Y5,Denver,39.7392,-104.9903
2004,R2Z1,R1Z1,R1Z8,Columbus,39.9833,-82.9833
2004,R2Z2,R1Z2,R1Z7,Seattle,47.6097,-122.3331
2004,R2Z3,R1Z3,R1Z6,Milwaukee,43.0500,-87.9500
2004,R2Z4,R1Z4,R1Z5,Kansas City,39.0997,-94.5783
2004,R3W1,R2W1,R2W4,Atlanta,33.7550,-84.39
2004,R3W2,R2W2,R2W3,Atlanta,33.7550,-84.39
2004,R3X1,R2X1,R2X4,East Rutherford,40.8171,-74.0850
2004,R3X2,R2X2,R2X3,East Rutherford,40.8171,-74.0850
2004,R3Y1,R2Y1,R2Y4,Phoenix,33.4500,-112.0667
2004,R3Y2,R2Y2,R2Y3,Phoenix,33.4500,-112.0667
2004,R3Z1,R2Z1,R2Z4,St. Louis,38.6272,-90.1978
2004,R3Z2,R2Z2,R2Z3,St. Louis,38.6272,-90.1978
2004,R4W1,R3W1,R3W2,Atlanta,33.7550,-84.39
2004,R4X1,R3X1,R3X2,East Rutherford,40.8171,-74.0850
2004,R4Y1,R3Y1,R3Y2,Phoenix,33.4500,-112.0667
2004,R4Z1,R3Z1,R3Z2,St. Louis,38.6272,-90.1978
2004,R5WX,R4W1,R4X1,San Antonio,29.41667,-98.5000
2004,R5YZ,R4Y1,R4Z1,San Antonio,29.41667,-98.5000
2004,R6CH,R5WX,R5YZ,San Antonio,29.41667,-98.5000
2004,Z16,Z16a,Z16b,Dayton,39.7594,-84.1917
2005,R1W1,W01,W16,Boise,43.6167,-116.2
2005,R1W2,W02,W15,Cleveland,41.4822,-81.6697
2005,R1W3,W03,W14,Tucson,32.2217,-110.9264
2005,R1W4,W04,W13,Nashville,36.1667,-86.7833
2005,R1W5,W05,W12,Nashville,36.1667,-86.7833
2005,R1W6,W06,W11,Tucson,32.2217,-110.9264
2005,R1W7,W07,W10,Cleveland,41.4822,-81.6697
2005,R1W8,W08,W09,Boise,43.6167,-116.2
2005,R1X1,X01,X16,Charlotte,35.2269,-80.8433
2005,R1X2,X02,X15,Indianapolis,39.7910,-86.1480
2005,R1X3,X03,X14,Tucson,32.2217,-110.9264
2005,R1X4,X04,X13,Worcester,42.2667,-71.8000
2005,R1X5,X05,X12,Worcester,42.2667,-71.8000
2005,R1X6,X06,X11,Tucson,32.2217,-110.9264
2005,R1X7,X07,X10,Indianapolis,39.7910,-86.1480
2005,R1X8,X08,X09,Charlotte,35.2269,-80.8433
2005,R1Y1,Y01,Y16,Indianapolis,39.7910,-86.1480
2005,R1Y2,Y02,Y15,Oklahoma City,35.4822,-97.5350
2005,R1Y3,Y03,Y14,Boise,43.6167,-116.2
2005,R1Y4,Y04,Y13,Cleveland,41.4822,-81.6697
2005,R1Y5,Y05,Y12,Cleveland,41.4822,-81.6697
2005,R1Y6,Y06,Y11,Boise,43.6167,-116.2
2005,R1Y7,Y07,Y10,Oklahoma City,35.4822,-97.5350
2005,R1Y8,Y08,Y09,Indianapolis,39.7910,-86.1480
2005,R1Z1,Z01,Z16,Charlotte,35.2269,-80.8433
2005,R1Z2,Z02,Z15,Worcester,42.2667,-71.8000
2005,R1Z3,Z03,Z14,Oklahoma City,35.4822,-97.5350
2005,R1Z4,Z04,Z13,Nashville,36.1667,-86.7833
2005,R1Z5,Z05,Z12,Nashville,36.1667,-86.7833
2005,R1Z6,Z06,Z11,Oklahoma City,35.4822,-97.5350
2005,R1Z7,Z07,Z10,Worcester,42.2667,-71.8000
2005,R1Z8,Z08,Z09,Charlotte,35.2269,-80.8433
2005,R2W1,R1W1,R1W8,Boise,43.6167,-116.2
2005,R2W2,R1W2,R1W7,Cleveland,41.4822,-81.6697
2005,R2W3,R1W3,R1W6,Tucson,32.2217,-110.9264
2005,R2W4,R1W4,R1W5,Nashville,36.1667,-86.7833
2005,R2X1,R1X1,R1X8,Charlotte,35.2269,-80.8433
2005,R2X2,R1X2,R1X7,Indianapolis,39.7910,-86.1480
2005,R2X3,R1X3,R1X6,Tucson,32.2217,-110.9264
2005,R2X4,R1X4,R1X5,Worcester,42.2667,-71.8000
2005,R2Y1,R1Y1,R1Y8,Indianapolis,39.7910,-86.1480
2005,R2Y2,R1Y2,R1Y7,Oklahoma City,35.4822,-97.5350
2005,R2Y3,R1Y3,R1Y6,Boise,43.6167,-116.2
2005,R2Y4,R1Y4,R1Y5,Cleveland,41.4822,-81.6697
2005,R2Z1,R1Z1,R1Z8,Charlotte,35.2269,-80.8433
2005,R2Z2,R1Z2,R1Z7,Worcester,42.2667,-71.8000
2005,R2Z3,R1Z3,R1Z6,Oklahoma City,35.4822,-97.5350
2005,R2Z4,R1Z4,R1Z5,Nashville,36.1667,-86.7833
2005,R3W1,R2W1,R2W4,Albuquerque,35.1107,-106.6100
2005,R3W2,R2W2,R2W3,Albuquerque,35.1107,-106.6100
2005,R3X1,R2X1,R2X4,Austin,30.2500,-97.75
2005,R3X2,R2X2,R2X3,Austin,30.2500,-97.75
2005,R3Y1,R2Y1,R2Y4,Chicago,41.8369,-87.6847
2005,R3Y2,R2Y2,R2Y3,Chicago,41.8369,-87.6847
2005,R3Z1,R2Z1,R2Z4,Syracuse,43.0469,-76.1444
2005,R3Z2,R2Z2,R2Z3,Syracuse,43.0469,-76.1444
2005,R4W1,R3W1,R3W2,Albuquerque,35.1107,-106.6100
2005,R4X1,R3X1,R3X2,Austin,30.2500,-97.75
2005,R4Y1,R3Y1,R3Y2,Chicago,41.8369,-87.6847
2005,R4Z1,R3Z1,R3Z2,Syracuse,43.0469,-76.1444
2005,R5WX,R4W1,R4X1,St. Louis,38.6272,-90.1978
2005,R5YZ,R4Y1,R4Z1,St. Louis,38.6272,-90.1978
2005,R6CH,R5WX,R5YZ,St. Louis,38.6272,-90.1978
2005,Z16,Z16a,Z16b,Dayton,39.7594,-84.1917
2006,R1W1,W01,W16,Greensboro,36.0800,-79.8194
2006,R1W2,W02,W15,Dallas,32.7767,-96.7970
2006,R1W3,W03,W14,Auburn Hills,42.6875,-83.2342
2006,R1W4,W04,W13,Jacksonville,30.3369,-81.6614
2006,R1W5,W05,W12,Jacksonville,30.3369,-81.6614
2006,R1W6,W06,W11,Auburn Hills,42.6875,-83.2342
2006,R1W7,W07,W10,Dallas,32.7767,-96.7970
2006,R1W8,W08,W09,Greensboro,36.0800,-79.8194
2006,R1X1,X01,X16,Philadelphia,39.9500,-75.1667
2006,R1X2,X02,X15,Dayton,39.7594,-84.1917
2006,R1X3,X03,X14,Jacksonville,30.3369,-81.6614
2006,R1X4,X04,X13,Salt Lake City,40.7500,-111.8833
2006,R1X5,X05,X12,Salt Lake City,40.7500,-111.8833
2006,R1X6,X06,X11,Jacksonville,30.3369,-81.6614
2006,R1X7,X07,X10,Dayton,39.7594,-84.1917
2006,R1X8,X08,X09,Philadelphia,39.9500,-75.1667
2006,R1Y1,Y01,Y16,Auburn Hills,42.6875,-83.2342
2006,R1Y2,Y02,Y15,San Diego,32.7150,-117.1625
2006,R1Y3,Y03,Y14,Salt Lake City,40.7500,-111.8833
2006,R1Y4,Y04,Y13,Dallas,32.7767,-96.7970
2006,R1Y5,Y05,Y12,Dallas,32.7767,-96.7970
2006,R1Y6,Y06,Y11,Salt Lake City,40.7500,-111.8833
2006,R1Y7,Y07,Y10,San Diego,32.7150,-117.1625
2006,R1Y8,Y08,Y09,Auburn Hills,42.6875,-83.2342
2006,R1Z1,Z01,Z16,Philadelphia,39.9500,-75.1667
2006,R1Z2,Z02,Z15,Greensboro,36.0800,-79.8194
2006,R1Z3,Z03,Z14,Dayton,39.7594,-84.1917
2006,R1Z4,Z04,Z13,San Diego,32.7150,-117.1625
2006,R1Z5,Z05,Z12,San Diego,32.7150,-117.1625
2006,R1Z6,Z06,Z11,Dayton,39.7594,-84.1917
2006,R1Z7,Z07,Z10,Greensboro,36.0800,-79.8194
2006,R1Z8,Z08,Z09,Philadelphia,39.9500,-75.1667
2006,R2W1,R1W1,R1W8,Greensboro,36.0800,-79.8194
2006,R2W2,R1W2,R1W7,Dallas,32.7767,-96.7970
2006,R2W3,R1W3,R1W6,Auburn Hills,42.6875,-83.2342
2006,R2W4,R1W4,R1W5,Jacksonville,30.3369,-81.6614
2006,R2X1,R1X1,R1X8,Philadelphia,39.9500,-75.1667
2006,R2X2,R1X2,R1X7,Dayton,39.7594,-84.1917
2006,R2X3,R1X3,R1X6,Jacksonville,30.3369,-81.6614
2006,R2X4,R1X4,R1X5,Salt Lake City,40.7500,-111.8833
2006,R2Y1,R1Y1,R1Y8,Auburn Hills,42.6875,-83.2342
2006,R2Y2,R1Y2,R1Y7,San Diego,32.7150,-117.1625
2006,R2Y3,R1Y3,R1Y6,Salt Lake City,40.7500,-111.8833
2006,R2Y4,R1Y4,R1Y5,Dallas,32.7767,-96.7970
2006,R2Z1,R1Z1,R1Z8,Philadelphia,39.9500,-75.1667
2006,R2Z2,R1Z2,R1Z7,Greensboro,36.0800,-79.8194
2006,R2Z3,R1Z3,R1Z6,Dayton,39.7594,-84.1917
2006,R2Z4,R1Z4,R1Z5,San Diego,32.7150,-117.1625
2006,R3W1,R2W1,R2W4,Atlanta,33.7550,-84.39
2006,R3W2,R2W2,R2W3,Atlanta,33.7550,-84.39
2006,R3X1,R2X1,R2X4,Minneapolis,44.9778,-93.2650
2006,R3X2,R2X2,R2X3,Minneapolis,44.9778,-93.2650
2006,R3Y1,R2Y1,R2Y4,Oakland,37.8044,-122.2708
2006,R3Y2,R2Y2,R2Y3,Oakland,37.8044,-122.2708
2006,R3Z1,R2Z1,R2Z4,Washington,38.8951,-77.0367
2006,R3Z2,R2Z2,R2Z3,Washington,38.8951,-77.0367
2006,R4W1,R3W1,R3W2,Atlanta,33.7550,-84.39
2006,R4X1,R3X1,R3X2,Minneapolis,44.9778,-93.2650
2006,R4Y1,R3Y1,R3Y2,Oakland,37.8044,-122.2708
2006,R4Z1,R3Z1,R3Z2,Washington,38.8951,-77.0367
2006,R5WX,R4W1,R4X1,Indianapolis,39.7910,-86.1480
2006,R5YZ,R4Y1,R4Z1,Indianapolis,39.7910,-86.1480
2006,R6CH,R5WX,R5YZ,Indianapolis,39.7910,-86.1480
2006,Y16,Y16a,Y16b,Dayton,39.7594,-84.1917
2007,R1W1,W01,W16,Winston-Salem,36.1028,-80.2605
2007,R1W2,W02,W15,Winston-Salem,36.1028,-80.2605
2007,R1W3,W03,W14,Sacramento,38.5556,-121.4689
2007,R1W4,W04,W13,Spokane,47.6589,-117.4250
2007,R1W5,W05,W12,Spokane,47.6589,-117.4250
2007,R1W6,W06,W11,Sacramento,38.5556,-121.4689
2007,R1W7,W07,W10,Winston-Salem,36.1028,-80.2605
2007,R1W8,W08,W09,Winston-Salem,36.1028,-80.2605
2007,R1X1,X01,X16,New Orleans,29.9667,-90.0500
2007,R1X2,X02,X15,Chicago,41.8369,-87.6847
2007,R1X3,X03,X14,Spokane,47.6589,-117.4250
2007,R1X4,X04,X13,Buffalo,42.9047,-78.8494
2007,R1X5,X05,X12,Buffalo,42.9047,-78.8494
2007,R1X6,X06,X11,Spokane,47.6589,-117.4250
2007,R1X7,X07,X10,Chicago,41.8369,-87.6847
2007,R1X8,X08,X09,New Orleans,29.9667,-90.0500
2007,R1Y1,Y01,Y16,Lexington,38.0297,-84.4947
2007,R1Y2,Y02,Y15,New Orleans,29.9667,-90.0500
2007,R1Y3,Y03,Y14,Lexington,38.0297,-84.4947
2007,R1Y4,Y04,Y13,Columbus,39.9833,-82.9833
2007,R1Y5,Y05,Y12,Columbus,39.9833,-82.9833
2007,R1Y6,Y06,Y11,Lexington,38.0297,-84.4947
2007,R1Y7,Y07,Y10,New Orleans,29.9667,-90.0500
2007,R1Y8,Y08,Y09,Lexington,38.0297,-84.4947
2007,R1Z1,Z01,Z16,Chicago,41.8369,-87.6847
2007,R1Z2,Z02,Z15,Sacramento,38.5556,-121.4689
2007,R1Z3,Z03,Z14,Buffalo,42.9047,-78.8494
2007,R1Z4,Z04,Z13,Columbus,39.9833,-82.9833
2007,R1Z5,Z05,Z12,Columbus,39.9833,-82.9833
2007,R1Z6,Z06,Z11,Buffalo,42.9047,-78.8494
2007,R1Z7,Z07,Z10,Sacramento,38.5556,-121.4689
2007,R1Z8,Z08,Z09,Chicago,41.8369,-87.6847
2007,R2W1,R1W1,R1W8,Winston-Salem,36.1028,-80.2605
2007,R2W2,R1W2,R1W7,Winston-Salem,36.1028,-80.2605
2007,R2W3,R1W3,R1W6,Sacramento,38.5556,-121.4689
2007,R2W4,R1W4,R1W5,Spokane,47.6589,-117.4250
2007,R2X1,R1X1,R1X8,New Orleans,29.9667,-90.0500
2007,R2X2,R1X2,R1X7,Chicago,41.8369,-87.6847
2007,R2X3,R1X3,R1X6,Spokane,47.6589,-117.4250
2007,R2X4,R1X4,R1X5,Buffalo,42.9047,-78.8494
2007,R2Y1,R1Y1,R1Y8,Lexington,38.0297,-84.4947
2007,R2Y2,R1Y2,R1Y7,New Orleans,29.9667,-90.0500
2007,R2Y3,R1Y3,R1Y6,Lexington,38.0297,-84.4947
2007,R2Y4,R1Y4,R1Y5,Columbus,39.9833,-82.9833
2007,R2Z1,R1Z1,R1Z8,Chicago,41.8369,-87.6847
2007,R2Z2,R1Z2,R1Z7,Sacramento,38.5556,-121.4689
2007,R2Z3,R1Z3,R1Z6,Buffalo,42.9047,-78.8494
2007,R2Z4,R1Z4,R1Z5,Columbus,39.9833,-82.9833
2007,R3W1,R2W1,R2W4,East Rutherford,40.8171,-74.0850
2007,R3W2,R2W2,R2W3,East Rutherford,40.8171,-74.0850
2007,R3X1,R2X1,R2X4,St. Louis,38.6272,-90.1978
2007,R3X2,R2X2,R2X3,St. Louis,38.6272,-90.1978
2007,R3Y1,R2Y1,R2Y4,San Antonio,29.41667,-98.5000
2007,R3Y2,R2Y2,R2Y3,San Antonio,29.41667,-98.5000
2007,R3Z1,R2Z1,R2Z4,San Jose,37.3382,-121.8863
2007,R3Z2,R2Z2,R2Z3,San Jose,37.3382,-121.8863
2007,R4W1,R3W1,R3W2,East Rutherford,40.8171,-74.0850
2007,R4X1,R3X1,R3X2,St. Louis,38.6272,-90.1978
2007,R4Y1,R3Y1,R3Y2,San Antonio,29.41667,-98.5000
2007,R4Z1,R3Z1,R3Z2,San Jose,37.3382,-121.8863
2007,R5WX,R4W1,R4X1,Atlanta,33.7550,-84.39
2007,R5YZ,R4Y1,R4Z1,Atlanta,33.7550,-84.39
2007,R6CH,R5WX,R5YZ,Atlanta,33.7550,-84.39
2007,Z16,Z16a,Z16b,Dayton,39.7594,-84.1917
2008,R1W1,W01,W16,Raleigh,35.7806,-78.6389
2008,R1W2,W02,W15,Birmingham,33.525,-86.813
2008,R1W3,W03,W14,Birmingham,33.525,-86.813
2008,R1W4,W04,W13,Denver,39.7392,-104.9903
2008,R1W5,W05,W12,Denver,39.7392,-104.9903
2008,R1W6,W06,W11,Birmingham,33.525,-86.813
2008,R1W7,W07,W10,Birmingham,33.525,-86.813
2008,R1W8,W08,W09,Raleigh,35.7806,-78.6389
2008,R1X1,X01,X16,Omaha,41.2500,-96.0000
2008,R1X2,X02,X15,Raleigh,35.7806,-78.6389
2008,R1X3,X03,X14,Omaha,41.2500,-96.0000
2008,R1X4,X04,X13,Tampa,27.9710,-82.4650
2008,R1X5,X05,X12,Tampa,27.9710,-82.4650
2008,R1X6,X06,X11,Omaha,41.2500,-96.0000
2008,R1X7,X07,X10,Raleigh,35.7806,-78.6389
2008,R1X8,X08,X09,Omaha,41.2500,-96.0000
2008,R1Y1,Y01,Y16,Little Rock,34.7361,-92.3311
2008,R1Y2,Y02,Y15,Little Rock,34.7361,-92.3311
2008,R1Y3,Y03,Y14,Anaheim,33.8361,-117.8897
2008,R1Y4,Y04,Y13,Denver,39.7392,-104.9903
2008,R1Y5,Y05,Y12,Denver,39.7392,-104.9903
2008,R1Y6,Y06,Y11,Anaheim,33.8361,-117.8897
2008,R1Y7,Y07,Y10,Little Rock,34.7361,-92.3311
2008,R1Y8,Y08,Y09,Little Rock,34.7361,-92.3311
2008,R1Z1,Z01,Z16,Anaheim,33.8361,-117.8897
2008,R1Z2,Z02,Z15,Washington,38.8951,-77.0367
2008,R1Z3,Z03,Z14,Washington,38.8951,-77.0367
2008,R1Z4,Z04,Z13,Tampa,27.9710,-82.4650
2008,R1Z5,Z05,Z12,Tampa,27.9710,-82.4650
2008,R1Z6,Z06,Z11,Washington,38.8951,-77.0367
2008,R1Z7,Z07,Z10,Washington,38.8951,-77.0367
2008,R1Z8,Z08,Z09,Anaheim,33.8361,-117.8897
2008,R2W1,R1W1,R1W8,Raleigh,35.7806,-78.6389
2008,R2W2,R1W2,R1W7,Birmingham,33.525,-86.813
2008,R2W3,R1W3,R1W6,Birmingham,33.525,-86.813
2008,R2W4,R1W4,R1W5,Denver,39.7392,-104.9903
2008,R2X1,R1X1,R1X8,Omaha,41.2500,-96.0000
2008,R2X2,R1X2,R1X7,Raleigh,35.7806,-78.6389
2008,R2X3,R1X3,R1X6,Omaha,41.2500,-96.0000
2008,R2X4,R1X4,R1X5,Tampa,27.9710,-82.4650
2008,R2Y1,R1Y1,R1Y8,Little Rock,34.7361,-92.3311
2008,R2Y2,R1Y2,R1Y7,Little Rock,34.7361,-92.3311
2008,R2Y3,R1Y3,R1Y6,Anaheim,33.8361,-117.8897
2008,R2Y4,R1Y4,R1Y5,Denver,39.7392,-104.9903
2008,R2Z1,R1Z1,R1Z8,Anaheim,33.8361,-117.8897
2008,R2Z2,R1Z2,R1Z7,Washington,38.8951,-77.0367
2008,R2Z3,R1Z3,R1Z6,Washington,38.8951,-77.0367
2008,R2Z4,R1Z4,R1Z5,Tampa,27.9710,-82.4650
2008,R3W1,R2W1,R2W4,Charlotte,35.2269,-80.8433
2008,R3W2,R2W2,R2W3,Charlotte,35.2269,-80.8433
2008,R3X1,R2X1,R2X4,Detroit,42.3314,-83.0458
2008,R3X2,R2X2,R2X3,Detroit,42.3314,-83.0458
2008,R3Y1,R2Y1,R2Y4,Houston,29.7604,-95.3698
2008,R3Y2,R2Y2,R2Y3,Houston,29.7604,-95.3698
2008,R3Z1,R2Z1,R2Z4,Phoenix,33.4500,-112.0667
2008,R3Z2,R2Z2,R2Z3,Phoenix,33.4500,-112.0667
2008,R4W1,R3W1,R3W2,Charlotte,35.2269,-80.8433
2008,R4X1,R3X1,R3X2,Detroit,42.3314,-83.0458
2008,R4Y1,R3Y1,R3Y2,Houston,29.7604,-95.3698
2008,R4Z1,R3Z1,R3Z2,Phoenix,33.4500,-112.0667
2008,R5WX,R4W1,R4X1,San Antonio,29.41667,-98.5000
2008,R5YZ,R4Y1,R4Z1,San Antonio,29.41667,-98.5000
2008,R6CH,R5WX,R5YZ,San Antonio,29.41667,-98.5000
2008,W16,W16a,W16b,Dayton,39.7594,-84.1917
2009,R1W1,W01,W16,Dayton,39.7594,-84.1917
2009,R1W2,W02,W15,Greensboro,36.0800,-79.8194
2009,R1W3,W03,W14,Philadelphia,39.9500,-75.1667
2009,R1W4,W04,W13,Boise,43.6167,-116.2
2009,R1W5,W05,W12,Boise,43.6167,-116.2
2009,R1W6,W06,W11,Philadelphia,39.9500,-75.1667
2009,R1W7,W07,W10,Greensboro,36.0800,-79.8194
2009,R1W8,W08,W09,Dayton,39.7594,-84.1917
2009,R1X1,X01,X16,Dayton,39.7594,-84.1917
2009,R1X2,X02,X15,Minneapolis,44.9778,-93.2650
2009,R1X3,X03,X14,Minneapolis,44.9778,-93.2650
2009,R1X4,X04,X13,Miami,25.7877,-80.2241
2009,R1X5,X05,X12,Miami,25.7877,-80.2241
2009,R1X6,X06,X11,Minneapolis,44.9778,-93.2650
2009,R1X7,X07,X10,Minneapolis,44.9778,-93.2650
2009,R1X8,X08,X09,Dayton,39.7594,-84.1917
2009,R1Y1,Y01,Y16,Greensboro,36.0800,-79.8194
2009,R1Y2,Y02,Y15,Kansas City,39.0997,-94.5783
2009,R1Y3,Y03,Y14,Miami,25.7877,-80.2241
2009,R1Y4,Y04,Y13,Portland,45.5200,-122.6819
2009,R1Y5,Y05,Y12,Portland,45.5200,-122.6819
2009,R1Y6,Y06,Y11,Miami,25.7877,-80.2241
2009,R1Y7,Y07,Y10,Kansas City,39.0997,-94.5783
2009,R1Y8,Y08,Y09,Greensboro,36.0800,-79.8194
2009,R1Z1,Z01,Z16,Philadelphia,39.9500,-75.1667
2009,R1Z2,Z02,Z15,Kansas City,39.0997,-94.5783
2009,R1Z3,Z03,Z14,Boise,43.6167,-116.2
2009,R1Z4,Z04,Z13,Portland,45.5200,-122.6819
2009,R1Z5,Z05,Z12,Portland,45.5200,-122.6819
2009,R1Z6,Z06,Z11,Boise,43.6167,-116.2
2009,R1Z7,Z07,Z10,Kansas City,39.0997,-94.5783
2009,R1Z8,Z08,Z09,Philadelphia,39.9500,-75.1667
2009,R2W1,R1W1,R1W8,Dayton,39.7594,-84.1917
2009,R2W2,R1W2,R1W7,Greensboro,36.0800,-79.8194
2009,R2W3,R1W3,R1W6,Philadelphia,39.9500,-75.1667
2009,R2W4,R1W4,R1W5,Boise,43.6167,-116.2
2009,R2X1,R1X1,R1X8,Dayton,39.7594,-84.1917
2009,R2X2,R1X2,R1X7,Minneapolis,44.9778,-93.2650
2009,R2X3,R1X3,R1X6,Minneapolis,44.9778,-93.2650
2009,R2X4,R1X4,R1X5,Miami,25.7877,-80.2241
2009,R2Y1,R1Y1,R1Y8,Greensboro,36.0800,-79.8194
2009,R2Y2,R1Y2,R1Y7,Kansas City,39.0997,-94.5783
2009,R2Y3,R1Y3,R1Y6,Miami,25.7877,-80.2241
2009,R2Y4,R1Y4,R1Y5,Portland,45.5200,-122.6819
2009,R2Z1,R1Z1,R1Z8,Philadelphia,39.9500,-75.1667
2009,R2Z2,R1Z2,R1Z7,Kansas City,39.0997,-94.5783
2009,R2Z3,R1Z3,R1Z6,Boise,43.6167,-116.2
2009,R2Z4,R1Z4,R1Z5,Portland,45.5200,-122.6819
2009,R3W1,R2W1,R2W4,Boston,42.3601,-71.0589
2009,R3W2,R2W2,R2W3,Boston,42.3601,-71.0589
2009,R3X1,R2X1,R2X4,Indianapolis,39.7910,-86.1480
2009,R3X2,R2X2,R2X3,Indianapolis,39.7910,-86.1480
2009,R3Y1,R2Y1,R2Y4,Memphis,35.1174,-89.9711
2009,R3Y2,R2Y2,R2Y3,Memphis,35.1174,-89.9711
2009,R3Z1,R2Z1,R2Z4,Glendale,33.5386,-112.1864
2009,R3Z2,R2Z2,R2Z3,Glendale,33.5386,-112.1864
2009,R4W1,R3W1,R3W2,Boston,42.3601,-71.0589
2009,R4X1,R3X1,R3X2,Indianapolis,39.7910,-86.1480
2009,R4Y1,R3Y1,R3Y2,Memphis,35.1174,-89.9711
2009,R4Z1,R3Z1,R3Z2,Glendale,33.5386,-112.1864
2009,R5WX,R4W1,R4X1,Detroit,42.3314,-83.0458
2009,R5YZ,R4Y1,R4Z1,Detroit,42.3314,-83.0458
2009,R6CH,R5WX,R5YZ,Detroit,42.3314,-83.0458
2009,Y16,Y16a,Y16b,Dayton,39.7594,-84.1917
2010,R1W1,W01,W16,New Orleans,29.9667,-90.0500
2010,R1W2,W02,W15,Buffalo,42.9047,-78.8494
2010,R1W3,W03,W14,San Jose,37.3382,-121.8863
2010,R1W4,W04,W13,Jacksonville,30.3369,-81.6614
2010,R1W5,W05,W12,Jacksonville,30.3369,-81.6614
2010,R1W6,W06,W11,San Jose,37.3382,-121.8863
2010,R1W7,W07,W10,Buffalo,42.9047,-78.8494
2010,R1W8,W08,W09,New Orleans,29.9667,-90.0500
2010,R1X1,X01,X16,Oklahoma City,35.4822,-97.5350
2010,R1X2,X02,X15,Milwaukee,43.0500,-87.9500
2010,R1X3,X03,X14,Providence,41.8236,-71.4222
2010,R1X4,X04,X13,Spokane,47.6589,-117.4250
2010,R1X5,X05,X12,Spokane,47.6589,-117.4250
2010,R1X6,X06,X11,Providence,41.8236,-71.4222
2010,R1X7,X07,X10,Milwaukee,43.0500,-87.9500
2010,R1X8,X08,X09,Oklahoma City,35.4822,-97.5350
2010,R1Y1,Y01,Y16,Jacksonville,30.3369,-81.6614
2010,R1Y2,Y02,Y15,Providence,41.8236,-71.4222
2010,R1Y3,Y03,Y14,New Orleans,29.9667,-90.0500
2010,R1Y4,Y04,Y13,Spokane,47.6589,-117.4250
2010,R1Y5,Y05,Y12,Spokane,47.6589,-117.4250
2010,R1Y6,Y06,Y11,New Orleans,29.9667,-90.0500
2010,R1Y7,Y07,Y10,Providence,41.8236,-71.4222
2010,R1Y8,Y08,Y09,Jacksonville,30.3369,-81.6614
2010,R1Z1,Z01,Z16,Buffalo,42.9047,-78.8494
2010,R1Z2,Z02,Z15,Oklahoma City,35.4822,-97.5350
2010,R1Z3,Z03,Z14,Milwaukee,43.0500,-87.9500
2010,R1Z4,Z04,Z13,San Jose,37.3382,-121.8863
2010,R1Z5,Z05,Z12,San Jose,37.3382,-121.8863
2010,R1Z6,Z06,Z11,Milwaukee,43.0500,-87.9500
2010,R1Z7,Z07,Z10,Oklahoma City,35.4822,-97.5350
2010,R1Z8,Z08,Z09,Buffalo,42.9047,-78.8494
2010,R2W1,R1W1,R1W8,New Orleans,29.9667,-90.0500
2010,R2W2,R1W2,R1W7,Buffalo,42.9047,-78.8494
2010,R2W3,R1W3,R1W6,San Jose,37.3382,-121.8863
2010,R2W4,R1W4,R1W5,Jacksonville,30.3369,-81.6614
2010,R2X1,R1X1,R1X8,Oklahoma City,35.4822,-97.5350
2010,R2X2,R1X2,R1X7,Milwaukee,43.0500,-87.9500
2010,R2X3,R1X3,R1X6,Providence,41.8236,-71.4222
2010,R2X4,R1X4,R1X5,Spokane,47.6589,-117.4250
2010,R2Y1,R1Y1,R1Y8,Jacksonville,30.3369,-81.6614
2010,R2Y2,R1Y2,R1Y7,Providence,41.8236,-71.4222
2010,R2Y3,R1Y3,R1Y6,New Orleans,29.9667,-90.0500
2010,R2Y4,R1Y4,R1Y5,Spokane,47.6589,-117.4250
2010,R2Z1,R1Z1,R1Z8,Buffalo,42.9047,-78.8494
2010,R2Z2,R1Z2,R1Z7,Oklahoma City,35.4822,-97.5350
2010,R2Z3,R1Z3,R1Z6,Milwaukee,43.0500,-87.9500
2010,R2Z4,R1Z4,R1Z5,San Jose,37.3382,-121.8863
2010,R3W1,R2W1,R2W4,Syracuse,43.0469,-76.1444
2010,R3W2,R2W2,R2W3,Syracuse,43.0469,-76.1444
2010,R3X1,R2X1,R2X4,St. Louis,38.6272,-90.1978
2010,R3X2,R2X2,R2X3,St. Louis,38.6272,-90.1978
2010,R3Y1,R2Y1,R2Y4,Houston,29.7604,-95.3698
2010,R3Y2,R2Y2,R2Y3,Houston,29.7604,-95.3698
2010,R3Z1,R2Z1,R2Z4,Salt Lake City,40.7500,-111.8833
2010,R3Z2,R2Z2,R2Z3,Salt Lake City,40.7500,-111.8833
2010,R4W1,R3W1,R3W2,Syracuse,43.0469,-76.1444
2010,R4X1,R3X1,R3X2,St. Louis,38.6272,-90.1978
2010,R4Y1,R3Y1,R3Y2,Houston,29.7604,-95.3698
2010,R4Z1,R3Z1,R3Z2,Salt Lake City,40.7500,-111.8833
2010,R5WX,R4W1,R4X1,Indianapolis,39.7910,-86.1480
2010,R5YZ,R4Y1,R4Z1,Indianapolis,39.7910,-86.1480
2010,R6CH,R5WX,R5YZ,Indianapolis,39.7910,-86.1480
2010,X16,X16a,X16b,Dayton,39.7594,-84.1917
2011,R1W1,W01,W16,Cleveland,41.4822,-81.6697
2011,R1W2,W02,W15,Charlotte,35.2269,-80.8433
2011,R1W3,W03,W14,Cleveland,41.4822,-81.6697
2011,R1W4,W04,W13,Tampa,27.9710,-82.4650
2011,R1W5,W05,W12,Tampa,27.9710,-82.4650
2011,R1W6,W06,W11,Cleveland,41.4822,-81.6697
2011,R1W7,W07,W10,Charlotte,35.2269,-80.8433
2011,R1W8,W08,W09,Cleveland,41.4822,-81.6697
2011,R1X1,X01,X16,Washington,38.8951,-77.0367
2011,R1X2,X02,X15,Tampa,27.9710,-82.4650
2011,R1X3,X03,X14,Denver,39.7392,-104.9903
2011,R1X4,X04,X13,Tucson,32.2217,-110.9264
2011,R1X5,X05,X12,Tucson,32.2217,-110.9264
2011,R1X6,X06,X11,Denver,39.7392,-104.9903
2011,R1X7,X07,X10,Tampa,27.9710,-82.4650
2011,R1X8,X08,X09,Washington,38.8951,-77.0367
2011,R1Y1,Y01,Y16,Tulsa,36.1314,-95.9372
2011,R1Y2,Y02,Y15,Chicago,41.8369,-87.6847
2011,R1Y3,Y03,Y14,Chicago,41.8369,-87.6847
2011,R1Y4,Y04,Y13,Denver,39.7392,-104.9903
2011,R1Y5,Y05,Y12,Denver,39.7392,-104.9903
2011,R1Y6,Y06,Y11,Chicago,41.8369,-87.6847
2011,R1Y7,Y07,Y10,Chicago,41.8369,-87.6847
2011,R1Y8,Y08,Y09,Tulsa,36.1314,-95.9372
2011,R1Z1,Z01,Z16,Charlotte,35.2269,-80.8433
2011,R1Z2,Z02,Z15,Tucson,32.2217,-110.9264
2011,R1Z3,Z03,Z14,Washington,38.8951,-77.0367
2011,R1Z4,Z04,Z13,Tulsa,36.1314,-95.9372
2011,R1Z5,Z05,Z12,Tulsa,36.1314,-95.9372
2011,R1Z6,Z06,Z11,Washington,38.8951,-77.0367
2011,R1Z7,Z07,Z10,Tucson,32.2217,-110.9264
2011,R1Z8,Z08,Z09,Charlotte,35.2269,-80.8433
2011,R2W1,R1W1,R1W8,Cleveland,41.4822,-81.6697
2011,R2W2,R1W2,R1W7,Charlotte,35.2269,-80.8433
2011,R2W3,R1W3,R1W6,Cleveland,41.4822,-81.6697
2011,R2W4,R1W4,R1W5,Tampa,27.9710,-82.4650
2011,R2X1,R1X1,R1X8,Washington,38.8951,-77.0367
2011,R2X2,R1X2,R1X7,Tampa,27.9710,-82.4650
2011,R2X3,R1X3,R1X6,Denver,39.7392,-104.9903
2011,R2X4,R1X4,R1X5,Tucson,32.2217,-110.9264
2011,R2Y1,R1Y1,R1Y8,Tulsa,36.1314,-95.9372
2011,R2Y2,R1Y2,R1Y7,Chicago,41.8369,-87.6847
2011,R2Y3,R1Y3,R1Y6,Chicago,41.8369,-87.6847
2011,R2Y4,R1Y4,R1Y5,Denver,39.7392,-104.9903
2011,R2Z1,R1Z1,R1Z8,Charlotte,35.2269,-80.8433
2011,R2Z2,R1Z2,R1Z7,Tucson,32.2217,-110.9264
2011,R2Z3,R1Z3,R1Z6,Washington,38.8951,-77.0367
2011,R2Z4,R1Z4,R1Z5,Tulsa,36.1314,-95.9372
2011,R3W1,R2W1,R2W4,Newark,40.7242,-74.1726
2011,R3W2,R2W2,R2W3,Newark,40.7242,-74.1726
2011,R3X1,R2X1,R2X4,New Orleans,29.9667,-90.0500
2011,R3X2,R2X2,R2X3,New Orleans,29.9667,-90.0500
2011,R3Y1,R2Y1,R2Y4,San Antonio,29.41667,-98.5000
2011,R3Y2,R2Y2,R2Y3,San Antonio,29.41667,-98.5000
2011,R3Z1,R2Z1,R2Z4,Anaheim,33.8361,-117.8897
2011,R3Z2,R2Z2,R2Z3,Anaheim,33.8361,-117.8897
2011,R4W1,R3W1,R3W2,Newark,40.7242,-74.1726
2011,R4X1,R3X1,R3X2,New Orleans,29.9667,-90.0500
2011,R4Y1,R3Y1,R3Y2,San Antonio,29.41667,-98.5000
2011,R4Z1,R3Z1,R3Z2,Anaheim,33.8361,-117.8897
2011,R5WX,R4W1,R4X1,Houston,29.7604,-95.3698
2011,R5YZ,R4Y1,R4Z1,Houston,29.7604,-95.3698
2011,R6CH,R5WX,R5YZ,Houston,29.7604,-95.3698
2011,W12,W12a,W12b,Dayton,39.7594,-84.1917
2011,W16,W16a,W16b,Dayton,39.7594,-84.1917
2011,Y16,Y16a,Y16b,Dayton,39.7594,-84.1917
2011,Z11,Z11a,Z11b,Dayton,39.7594,-84.1917
2012,R1W1,W01,W16,Pittsburgh,40.4417,-80.0000
2012,R1W2,W02,W15,Pittsburgh,40.4417,-80.0000
2012,R1W3,W03,W14,Nashville,36.1667,-86.7833
2012,R1W4,W04,W13,Albuquerque,35.1107,-106.6100
2012,R1W5,W05,W12,Albuquerque,35.1107,-106.6100
2012,R1W6,W06,W11,Nashville,36.1667,-86.7833
2012,R1W7,W07,W10,Pittsburgh,40.4417,-80.0000
2012,R1W8,W08,W09,Pittsburgh,40.4417,-80.0000
2012,R1X1,X01,X16,Greensboro,36.0800,-79.8194
2012,R1X2,X02,X15,Omaha,41.2500,-96.0000
2012,R1X3,X03,X14,Columbus,39.9833,-82.9833
2012,R1X4,X04,X13,Nashville,36.1667,-86.7833
2012,R1X5,X05,X12,Nashville,36.1667,-86.7833
2012,R1X6,X06,X11,Columbus,39.9833,-82.9833
2012,R1X7,X07,X10,Omaha,41.2500,-96.0000
2012,R1X8,X08,X09,Greensboro,36.0800,-79.8194
2012,R1Y1,Y01,Y16,Louisville,38.2500,-85.7667
2012,R1Y2,Y02,Y15,Greensboro,36.0800,-79.8194
2012,R1Y3,Y03,Y14,Albuquerque,35.1107,-106.6100
2012,R1Y4,Y04,Y13,Portland,45.5200,-122.6819
2012,R1Y5,Y05,Y12,Portland,45.5200,-122.6819
2012,R1Y6,Y06,Y11,Albuquerque,35.1107,-106.6100
2012,R1Y7,Y07,Y10,Greensboro,36.0800,-79.8194
2012,R1Y8,Y08,Y09,Louisville,38.2500,-85.7667
2012,R1Z1,Z01,Z16,Columbus,39.9833,-82.9833
2012,R1Z2,Z02,Z15,Omaha,41.2500,-96.0000
2012,R1Z3,Z03,Z14,Louisville,38.2500,-85.7667
2012,R1Z4,Z04,Z13,Portland,45.5200,-122.6819
2012,R1Z5,Z05,Z12,Portland,45.5200,-122.6819
2012,R1Z6,Z06,Z11,Louisville,38.2500,-85.7667
2012,R1Z7,Z07,Z10,Omaha,41.2500,-96.0000
2012,R1Z8,Z08,Z09,Columbus,39.9833,-82.9833
2012,R2W1,R1W1,R1W8,Pittsburgh,40.4417,-80.0000
2012,R2W2,R1W2,R1W7,Pittsburgh,40.4417,-80.0000
2012,R2W3,R1W3,R1W6,Nashville,36.1667,-86.7833
2012,R2W4,R1W4,R1W5,Albuquerque,35.1107,-106.6100
2012,R2X1,R1X1,R1X8,Greensboro,36.0800,-79.8194
2012,R2X2,R1X2,R1X7,Omaha,41.2500,-96.0000
2012,R2X3,R1X3,R1X6,Columbus,39.9833,-82.9833
2012,R2X4,R1X4,R1X5,Nashville,36.1667,-86.7833
2012,R2Y1,R1Y1,R1Y8,Louisville,38.2500,-85.7667
2012,R2Y2,R1Y2,R1Y7,Greensboro,36.0800,-79.8194
2012,R2Y3,R1Y3,R1Y6,Albuquerque,35.1107,-106.6100
2012,R2Y4,R1Y4,R1Y5,Portland,45.5200,-122.6819
2012,R2Z1,R1Z1,R1Z8,Columbus,39.9833,-82.9833
2012,R2Z2,R1Z2,R1Z7,Omaha,41.2500,-96.0000
2012,R2Z3,R1Z3,R1Z6,Louisville,38.2500,-85.7667
2012,R2Z4,R1Z4,R1Z5,Portland,45.5200,-122.6819
2012,R3W1,R2W1,R2W4,Boston,42.3601,-71.0589
2012,R3W2,R2W2,R2W3,Boston,42.3601,-71.0589
2012,R3X1,R2X1,R2X4,St. Louis,38.6272,-90.1978
2012,R3X2,R2X2,R2X3,St. Louis,38.6272,-90.1978
2012,R3Y1,R2Y1,R2Y4,Atlanta,33.7550,-84.39
2012,R3Y2,R2Y2,R2Y3,Atlanta,33.7550,-84.39
2012,R3Z1,R2Z1,R2Z4,Phoenix,33.4500,-112.0667
2012,R3Z2,R2Z2,R2Z3,Phoenix,33.4500,-112.0667
2012,R4W1,R3W1,R3W2,Boston,42.3601,-71.0589
2012,R4X1,R3X1,R3X2,St. Louis,38.6272,-90.1978
2012,R4Y1,R3Y1,R3Y2,Atlanta,33.7550,-84.39
2012,R4Z1,R3Z1,R3Z2,Phoenix,33.4500,-112.0667
2012,R5WX,R4W1,R4X1,New Orleans,29.9667,-90.0500
2012,R5YZ,R4Y1,R4Z1,New Orleans,29.9667,-90.0500
2012,R6CH,R5WX,R5YZ,New Orleans,29.9667,-90.0500
2012,X12,X12a,X12b,Dayton,39.7594,-84.1917
2012,X16,X16a,X16b,Dayton,39.7594,-84.1917
2012,Y16,Y16a,Y16b,Dayton,39.7594,-84.1917
2012,Z14,Z14a,Z14b,Dayton,39.7594,-84.1917
2013,R1W1,W01,W16,Dayton,39.7594,-84.1917
2013,R1W2,W02,W15,Austin,30.2500,-97.75
2013,R1W3,W03,W14,Lexington,38.0297,-84.4947
2013,R1W4,W04,W13,San Jose,37.3382,-121.8863
2013,R1W5,W05,W12,San Jose,37.3382,-121.8863
2013,R1W6,W06,W11,Lexington,38.0297,-84.4947
2013,R1W7,W07,W10,Austin,30.2500,-97.75
2013,R1W8,W08,W09,Dayton,39.7594,-84.1917
2013,R1X1,X01,X16,Lexington,38.0297,-84.4947
2013,R1X2,X02,X15,Philadelphia,39.9500,-75.1667
2013,R1X3,X03,X14,Auburn Hills,42.6875,-83.2342
2013,R1X4,X04,X13,San Jose,37.3382,-121.8863
2013,R1X5,X05,X12,San Jose,37.3382,-121.8863
2013,R1X6,X06,X11,Auburn Hills,42.6875,-83.2342
2013,R1X7,X07,X10,Philadelphia,39.9500,-75.1667
2013,R1X8,X08,X09,Lexington,38.0297,-84.4947
2013,R1Y1,Y01,Y16,Kansas City,39.0997,-94.5783
2013,R1Y2,Y02,Y15,Philadelphia,39.9500,-75.1667
2013,R1Y3,Y03,Y14,Austin,30.2500,-97.75
2013,R1Y4,Y04,Y13,Auburn Hills,42.6875,-83.2342
2013,R1Y5,Y05,Y12,Auburn Hills,42.6875,-83.2342
2013,R1Y6,Y06,Y11,Austin,30.2500,-97.75
2013,R1Y7,Y07,Y10,Philadelphia,39.9500,-75.1667
2013,R1Y8,Y08,Y09,Kansas City,39.0997,-94.5783
2013,R1Z1,Z01,Z16,Salt Lake City,40.7500,-111.8833
2013,R1Z2,Z02,Z15,Dayton,39.7594,-84.1917
2013,R1Z3,Z03,Z14,Salt Lake City,40.7500,-111.8833
2013,R1Z4,Z04,Z13,Kansas City,39.0997,-94.5783
2013,R1Z5,Z05,Z12,Kansas City,39.0997,-94.5783
2013,R1Z6,Z06,Z11,Salt Lake City,40.7500,-111.8833
2013,R1Z7,Z07,Z10,Dayton,39.7594,-84.1917
2013,R1Z8,Z08,Z09,Salt Lake City,40.7500,-111.8833
2013,R2W1,R1W1,R1W8,Dayton,39.7594,-84.1917
2013,R2W2,R1W2,R1W7,Austin,30.2500,-97.75
2013,R2W3,R1W3,R1W6,Lexington,38.0297,-84.4947
2013,R2W4,R1W4,R1W5,San Jose,37.3382,-121.8863
2013,R2X1,R1X1,R1X8,Lexington,38.0297,-84.4947
2013,R2X2,R1X2,R1X7,Philadelphia,39.9500,-75.1667
2013,R2X3,R1X3,R1X6,Auburn Hills,42.6875,-83.2342
2013,R2X4,R1X4,R1X5,San Jose,37.3382,-121.8863
2013,R2Y1,R1Y1,R1Y8,Kansas City,39.0997,-94.5783
2013,R2Y2,R1Y2,R1Y7,Philadelphia,39.9500,-75.1667
2013,R2Y3,R1Y3,R1Y6,Austin,30.2500,-97.75
2013,R2Y4,R1Y4,R1Y5,Auburn Hills,42.6875,-83.2342
2013,R2Z1,R1Z1,R1Z8,Salt Lake City,40.7500,-111.8833
2013,R2Z2,R1Z2,R1Z7,Dayton,39.7594,-84.1917
2013,R2Z3,R1Z3,R1Z6,Salt Lake City,40.7500,-111.8833
2013,R2Z4,R1Z4,R1Z5,Kansas City,39.0997,-94.5783
2013,R3W1,R2W1,R2W4,Washington,38.8951,-77.0367
2013,R3W2,R2W2,R2W3,Washington,38.8951,-77.0367
2013,R3X1,R2X1,R2X4,Indianapolis,39.7910,-86.1480
2013,R3X2,R2X2,R2X3,Indianapolis,39.7910,-86.1480
2013,R3Y1,R2Y1,R2Y4,Arlington,32.7050,-97.1228
2013,R3Y2,R2Y2,R2Y3,Arlington,32.7050,-97.1228
2013,R3Z1,R2Z1,R2Z4,Los Angeles,34.0500,-118.2500
2013,R3Z2,R2Z2,R2Z3,Los Angeles,34.0500,-118.2500
2013,R4W1,R3W1,R3W2,Washington,38.8951,-77.0367
2013,R4X1,R3X1,R3X2,Indianapolis,39.7910,-86.1480
2013,R4Y1,R3Y1,R3Y2,Arlington,32.7050,-97.1228
2013,R4Z1,R3Z1,R3Z2,Los Angeles,34.0500,-118.2500
2013,R5WX,R4W1,R4X1,Atlanta,33.7550,-84.39
2013,R5YZ,R4Y1,R4Z1,Atlanta,33.7550,-84.39
2013,R6CH,R5WX,R5YZ,Atlanta,33.7550,-84.39
2013,W16,W16a,W16b,Dayton,39.7594,-84.1917
2013,Y11,Y11a,Y11b,Dayton,39.7594,-84.1917
2013,Y16,Y16a,Y16b,Dayton,39.7594,-84.1917
2013,Z13,Z13a,Z13b,Dayton,39.7594,-84.1917
2014,R1W1,W01,W16,Raleigh,35.7806,-78.6389
2014,R1W2,W02,W15,Buffalo,42.9047,-78.8494
2014,R1W3,W03,W14,San Antonio,29.41667,-98.5000
2014,R1W4,W04,W13,Spokane,47.6589,-117.4250
2014,R1W5,W05,W12,Spokane,47.6589,-117.4250
2014,R1W6,W06,W11,San Antonio,29.41667,-98.5000
2014,R1W7,W07,W10,Buffalo,42.9047,-78.8494
2014,R1W8,W08,W09,Raleigh,35.7806,-78.6389
2014,R1X1,X01,X16,St. Louis,38.6272,-90.1978
2014,R1X2,X02,X15,Milwaukee,43.0500,-87.9500
2014,R1X3,X03,X14,Raleigh,35.7806,-78.6389
2014,R1X4,X04,X13,Orlando,28.4158,-81.2989
2014,R1X5,X05,X12,Orlando,28.4158,-81.2989
2014,R1X6,X06,X11,Raleigh,35.7806,-78.6389
2014,R1X7,X07,X10,Milwaukee,43.0500,-87.9500
2014,R1X8,X08,X09,St. Louis,38.6272,-90.1978
2014,R1Y1,Y01,Y16,Orlando,28.4158,-81.2989
2014,R1Y2,Y02,Y15,St. Louis,38.6272,-90.1978
2014,R1Y3,Y03,Y14,Buffalo,42.9047,-78.8494
2014,R1Y4,Y04,Y13,San Diego,32.7150,-117.1625
2014,R1Y5,Y05,Y12,San Diego,32.7150,-117.1625
2014,R1Y6,Y06,Y11,Buffalo,42.9047,-78.8494
2014,R1Y7,Y07,Y10,St. Louis,38.6272,-90.1978
2014,R1Y8,Y08,Y09,Orlando,28.4158,-81.2989
2014,R1Z1,Z01,Z16,San Diego,32.7150,-117.1625
2014,R1Z2,Z02,Z15,Milwaukee,43.0500,-87.9500
2014,R1Z3,Z03,Z14,San Antonio,29.41667,-98.5000
2014,R1Z4,Z04,Z13,Spokane,47.6589,-117.4250
2014,R1Z5,Z05,Z12,Spokane,47.6589,-117.4250
2014,R1Z6,Z06,Z11,San Antonio,29.41667,-98.5000
2014,R1Z7,Z07,Z10,Milwaukee,43.0500,-87.9500
2014,R1Z8,Z08,Z09,San Diego,32.7150,-117.1625
2014,R2W1,R1W1,R1W8,Raleigh,35.7806,-78.6389
2014,R2W2,R1W2,R1W7,Buffalo,42.9047,-78.8494
2014,R2W3,R1W3,R1W6,San Antonio,29.41667,-98.5000
2014,R2W4,R1W4,R1W5,Spokane,47.6589,-117.4250
2014,R2X1,R1X1,R1X8,St. Louis,38.6272,-90.1978
2014,R2X2,R1X2,R1X7,Milwaukee,43.0500,-87.9500
2014,R2X3,R1X3,R1X6,Raleigh,35.7806,-78.6389
2014,R2X4,R1X4,R1X5,Orlando,28.4158,-81.2989
2014,R2Y1,R1Y1,R1Y8,Orlando,28.4158,-81.2989
2014,R2Y2,R1Y2,R1Y7,St. Louis,38.6272,-90.1978
2014,R2Y3,R1Y3,R1Y6,Buffalo,42.9047,-78.8494
2014,R2Y4,R1Y4,R1Y5,San Diego,32.7150,-117.1625
2014,R2Z1,R1Z1,R1Z8,San Diego,32.7150,-117.1625
2014,R2Z2,R1Z2,R1Z7,Milwaukee,43.0500,-87.9500
2014,R2Z3,R1Z3,R1Z6,San Antonio,29.41667,-98.5000
2014,R2Z4,R1Z4,R1Z5,Spokane,47.6589,-117.4250
2014,R3W1,R2W1,R2W4,New York,40.7127,-74.0059
2014,R3W2,R2W2,R2W3,New York,40.7127,-74.0059
2014,R3X1,R2X1,R2X4,Indianapolis,39.7910,-86.1480
2014,R3X2,R2X2,R2X3,Indianapolis,39.7910,-86.1480
2014,R3Y1,R2Y1,R2Y4,Memphis,35.1174,-89.9711
2014,R3Y2,R2Y2,R2Y3,Memphis,35.1174,-89.9711
2014,R3Z1,R2Z1,R2Z4,Anaheim,33.8361,-117.8897
2014,R3Z2,R2Z2,R2Z3,Anaheim,33.8361,-117.8897
2014,R4W1,R3W1,R3W2,New York,40.7127,-74.0059
2014,R4X1,R3X1,R3X2,Indianapolis,39.7910,-86.1480
2014,R4Y1,R3Y1,R3Y2,Memphis,35.1174,-89.9711
2014,R4Z1,R3Z1,R3Z2,Anaheim,33.8361,-117.8897
2014,R5WX,R4W1,R4X1,Arlington,32.7050,-97.1228
2014,R5YZ,R4Y1,R4Z1,Arlington,32.7050,-97.1228
2014,R6CH,R5WX,R5YZ,Arlington,32.7050,-97.1228
2014,X16,X16a,X16b,Dayton,39.7594,-84.1917
2014,Y11,Y11a,Y11b,Dayton,39.7594,-84.1917
2014,Y12,Y12a,Y12b,Dayton,39.7594,-84.1917
2014,Y16,Y16a,Y16b,Dayton,39.7594,-84.1917